{"page":10,"pageCount":19,"perPage":10,"total":190,"posts":[{"id":"2026-06-03-01-github-copilot-multi-agent-ships-in-vs-code-micr","title":"GitHub Copilot Multi-Agent Ships in VS Code (Microsoft Build 2026)","excerpt":"At Build 2026, Microsoft launched multi-agent support for VS Code, letting an orchestrator agent spawn parallel subagents for simultaneous workstreams — linting, test generation, documentation, and…","author":"Chris Harper","date":"06-03-2026","tags":["AI","Developer Tools","Security"],"readTime":1,"image":"https://github.com/cloudcodetree/cloudcodetree.github.io/releases/download/blog-images/2026-06-03-01-github-copilot-multi-agent-ships-in-vs-code-micr.jpg","imageSource":"https://www.techtimes.com/articles/317596/20260602/github-copilot-replaces-gpt-4-project-polaris-ships-multi-agent-vs-code-build.htm","content":"At Build 2026, Microsoft launched multi-agent support for VS Code, letting an orchestrator agent spawn parallel subagents for simultaneous workstreams — linting, test generation, documentation, and security review can all run concurrently instead of sequentially. Available now in preview for Copilot subscribers; the GitHub Copilot native desktop app also dropped in preview.\n\n---\n*Sources: [TechTimes](https://www.techtimes.com/articles/317596/20260602/github-copilot-replaces-gpt-4-project-polaris-ships-multi-agent-vs-code-build.htm) · [Tom's Guide Build 2026 Recap](https://www.tomsguide.com/news/live/microsoft-build-2026)*\n"},{"id":"2026-06-03-02-cursor-model-routing-strategy-match-the-model-to","title":"Cursor Model Routing Strategy: Match the Model to the Task","excerpt":"The community consensus in 2026 is to stop sending everything to the same model. Route Gemini 2.0 Flash for fast prototyping/throwaway code, Claude 3.5 Sonnet for standard feature development, and…","author":"Chris Harper","date":"06-03-2026","tags":["AI","Developer Tools","LLM"],"readTime":1,"image":"https://github.com/cloudcodetree/cloudcodetree.github.io/releases/download/blog-images/2026-06-03-02-cursor-model-routing-strategy-match-the-model-to.jpg","imageSource":"https://www.vibecodingacademy.ai/blog/cursor-ai-best-practices-guide-2026","content":"The community consensus in 2026 is to stop sending everything to the same model. Route Gemini 2.0 Flash for fast prototyping/throwaway code, Claude 3.5 Sonnet for standard feature development, and reserve heavy reasoning models (Opus, GPT-5) for genuinely hard problems. Pairing this with precise context targeting — `@filename` once you know the file, `@codebase` only for discovery — consistently improves suggestion quality and cuts costs.\n\n---\n*Sources: [Cursor AI Best Practices – Vibe Coding Academy](https://www.vibecodingacademy.ai/blog/cursor-ai-best-practices-guide-2026) · [Engineer's Guide to Cursor AI – Rails Drop](https://railsdrop.com/2026/01/03/engineers-guide-to-cursor-ai-mastering-the-ai-first-ide-in-2026/)*\n"},{"id":"2026-06-03-03-cursor-composer-25-cursor-as-an-autonomous-engin","title":"Cursor Composer 2.5 & Cursor as an Autonomous Engineer","excerpt":"Cursor shipped Composer 2.5 in May 2026, an in-house long-horizon model that benchmarks alongside Opus 4.7 and GPT-5.5 on agentic tasks. The latest versions can sustain multi-step tasks for hours…","author":"Chris Harper","date":"06-03-2026","tags":["AI","Developer Tools","LLM"],"readTime":1,"image":"https://github.com/cloudcodetree/cloudcodetree.github.io/releases/download/blog-images/2026-06-03-03-cursor-composer-25-cursor-as-an-autonomous-engin.jpg","imageSource":"https://dev.to/storm_son_b44db572b250b68/ai-coding-tools-2026-cursor-vs-github-copilot-vs-claude-code-real-comparison-1kj4","content":"Cursor shipped Composer 2.5 in May 2026, an in-house long-horizon model that benchmarks alongside Opus 4.7 and GPT-5.5 on agentic tasks. The latest versions can sustain multi-step tasks for hours without intervention. Code review (understanding *why* the AI made a change) is now considered higher-leverage than writing the change itself.\n\n---\n*Sources: [DEV Community Comparison](https://dev.to/storm_son_b44db572b250b68/ai-coding-tools-2026-cursor-vs-github-copilot-vs-claude-code-real-comparison-1kj4) · [Pyyne – Building Software with AI in 2026](https://www.pyyne.com/post/building-software-with-ai-in-2026-diving-into-cursor)*\n"},{"id":"2026-06-03-04-windows-aion-10-on-device-ai-inference-is-now-a-","title":"Windows Aion 1.0: On-Device AI Inference Is Now a First-Class Build Target","excerpt":"Microsoft shipped Aion 1.0 Plan (14B parameter, 32K context, tool-calling) and Aion 1.0 Instruct (fast summarization/rewriting SLM) in-box with Windows on capable devices. Developers can now build…","author":"Chris Harper","date":"06-03-2026","tags":["AI","Developer Tools","Cloud"],"readTime":1,"image":"https://github.com/cloudcodetree/cloudcodetree.github.io/releases/download/blog-images/2026-06-03-04-windows-aion-10-on-device-ai-inference-is-now-a-.jpg","imageSource":"https://chatforest.com/builders-log/microsoft-build-2026-windows-ai-models-aion-local-inference-builder-guide/","content":"Microsoft shipped Aion 1.0 Plan (14B parameter, 32K context, tool-calling) and Aion 1.0 Instruct (fast summarization/rewriting SLM) in-box with Windows on capable devices. Developers can now build fully local agentic apps — file management, sub-agent orchestration, intent detection — without any cloud round-trip. Aion Instruct is available today in Edge Insider; open weights come to Hugging Face in July.\n\n---\n*Sources: [ChatForest Builder Guide](https://chatforest.com/builders-log/microsoft-build-2026-windows-ai-models-aion-local-inference-builder-guide/) · [WinCentral](https://thewincentral.com/microsoft-aion-1-ai-models-expanded-windows-ai-apis-build-2026/) · [Microsoft Build 2026 Everything Announced – The Neuron](https://www.theneuron.ai/explainer-articles/everything-microsoft-announced-at-microsoft-build-2026-explained/)*\n"},{"id":"2026-06-03-05-ollama-still-the-community-standard-for-local-ll","title":"Ollama Still the Community Standard for Local LLM Dev","excerpt":"r/LocalLLaMA benchmarks in 2026 consistently place Ollama as the fastest path to a local OpenAI-compatible API (localhost:11434). The top mistake: running CPU-only without realizing you'll get 2–5…","author":"Chris Harper","date":"06-03-2026","tags":["AI","Developer Tools","LLM"],"readTime":1,"image":"https://github.com/cloudcodetree/cloudcodetree.github.io/releases/download/blog-images/2026-06-03-05-ollama-still-the-community-standard-for-local-ll.jpg","imageSource":"https://www.aitooldiscovery.com/guides/local-llm-reddit","content":"r/LocalLLaMA benchmarks in 2026 consistently place Ollama as the fastest path to a local OpenAI-compatible API (`localhost:11434`). The top mistake: running CPU-only without realizing you'll get 2–5 tok/s instead of 50+ on GPU. For local model selection, Qwen and Phi-4 series continue to punch above their weight for constrained hardware.\n\n---\n*Sources: [AI Tool Discovery – LocalLLM Reddit](https://www.aitooldiscovery.com/guides/local-llm-reddit)*\n"},{"id":"2026-06-03-06-context-engineering-is-replacing-prompt-engineer","title":"Context Engineering Is Replacing Prompt Engineering as the Core Discipline","excerpt":"The emerging 2026 consensus: if the model understands your intent but lacks the right information, that's a context problem, not a prompt problem. A well-crafted prompt in a poorly engineered context…","author":"Chris Harper","date":"06-03-2026","tags":["AI","Best Practices","LLM"],"readTime":1,"image":"https://github.com/cloudcodetree/cloudcodetree.github.io/releases/download/blog-images/2026-06-03-06-context-engineering-is-replacing-prompt-engineer.jpg","imageSource":"https://neo4j.com/blog/agentic-ai/context-engineering-vs-prompt-engineering/","content":"The emerging 2026 consensus: if the model understands your intent but lacks the right information, that's a *context* problem, not a prompt problem. A well-crafted prompt in a poorly engineered context still fails; a mediocre prompt in a well-engineered context often succeeds. The practical shift: treat the LLM as a CPU, the context window as RAM, and your job as the OS — loading exactly the right data for each task. LangChain's four formalized strategies: *write* (persist externally), *select* (RAG), *compress* (summarize), and *isolate* (separate agent contexts).\n\n---\n*Sources: [Neo4j Blog](https://neo4j.com/blog/agentic-ai/context-engineering-vs-prompt-engineering/) · [Firecrawl Blog](https://www.firecrawl.dev/blog/context-engineering) · [deepset Blog](https://www.deepset.ai/blog/context-engineering-the-next-frontier-beyond-prompt-engineering)*\n"},{"id":"2026-06-03-07-lost-in-the-middle-still-kills-rag-quality-place","title":"Lost in the Middle\" Still Kills RAG Quality — Placement Matters","excerpt":"Stanford research has been widely validated in production: LLM performance degrades significantly when key information is buried in the middle of long contexts. For RAG pipelines, put the most…","author":"Chris Harper","date":"06-03-2026","tags":["AI","Best Practices","LLM"],"readTime":1,"image":"https://github.com/cloudcodetree/cloudcodetree.github.io/releases/download/blog-images/2026-06-03-07-lost-in-the-middle-still-kills-rag-quality-place.jpg","imageSource":"https://www.stackai.com/blog/prompt-engineering-for-rag-pipelines-the-complete-guide-to-prompt-engineering-for-retrieval-augmented-generation","content":"Stanford research has been widely validated in production: LLM performance degrades significantly when key information is buried in the middle of long contexts. For RAG pipelines, put the most important retrieved chunks at the *start* or *end* of the input, not sandwiched in the middle. Retrieval quality ultimately determines answer quality — wrong chunks in means confidently wrong answers out, regardless of model size.\n\n---\n*Sources: [Stack AI – Prompt Engineering for RAG](https://www.stackai.com/blog/prompt-engineering-for-rag-pipelines-the-complete-guide-to-prompt-engineering-for-retrieval-augmented-generation)*\n"},{"id":"2026-06-03-08-ai-agent-prompt-patterns-that-hold-up-in-product","title":"AI Agent Prompt Patterns That Hold Up in Production","excerpt":"Three patterns that apply across all models and frameworks: (1) Role + Constraints — give the agent a specific persona and hard behavioral limits upfront; (2) Guard Rails — define what the agent must…","author":"Chris Harper","date":"06-03-2026","tags":["AI","Best Practices"],"readTime":1,"image":"https://github.com/cloudcodetree/cloudcodetree.github.io/releases/download/blog-images/_default.png","content":"Three patterns that apply across all models and frameworks: (1) **Role + Constraints** — give the agent a specific persona and hard behavioral limits upfront; (2) **Guard Rails** — define what the agent must *not* do, not just what it should do; (3) **Error Recovery** — explicitly specify what the agent should do when a tool call fails or returns unexpected output. These belong in the system prompt, versioned in git like any other code.\n\n---\n*Sources: [Paxrel – AI Agent Prompt Engineering](https://paxrel.com/blog-ai-agent-prompts) · [VDF AI – Agentic Design Patterns](https://vdf.ai/blog/agentic-design-patterns-practical-guide/)*\n"},{"id":"2026-06-03-09-version-control-your-prompts-prompt-drift-is-rea","title":"Version Control Your Prompts — Prompt Drift Is Real","excerpt":"If a prompt runs more than once, it belongs in version control. Build a golden test set (representative inputs + expected outputs) and run it on every prompt change, treating it as regression testing…","author":"Chris Harper","date":"06-03-2026","tags":["AI","Best Practices","Developer Tools"],"readTime":1,"image":"https://github.com/cloudcodetree/cloudcodetree.github.io/releases/download/blog-images/2026-06-03-09-version-control-your-prompts-prompt-drift-is-rea.jpg","imageSource":"https://fungies.io/ai-prompt-engineering-best-practices-2026/","content":"If a prompt runs more than once, it belongs in version control. Build a golden test set (representative inputs + expected outputs) and run it on every prompt change, treating it as regression testing for instructions. This discipline is now standard in production AI systems but still overlooked by most teams building internal tools.\n\n---\n*Sources: [Fungies.io – Prompt Engineering Best Practices 2026](https://fungies.io/ai-prompt-engineering-best-practices-2026/) · [Thomas Wiegold Blog](https://thomas-wiegold.com/blog/prompt-engineering-best-practices-2026/)*\n"},{"id":"2026-06-03-10-multi-agent-llm-research-2026-paper-roundup-arxi","title":"Multi-Agent LLM Research: 2026 Paper Roundup (arXiv)","excerpt":"Active research areas this month include multi-agent coordination with conformal prediction (CommCP), autonomous agentic pipelines for scientific computing (AutoNumerics), and multi-agent negotiation…","author":"Chris Harper","date":"06-03-2026","tags":["AI","Best Practices","Security"],"readTime":1,"image":"https://github.com/cloudcodetree/cloudcodetree.github.io/releases/download/blog-images/2026-06-03-10-multi-agent-llm-research-2026-paper-roundup-arxi.jpg","imageSource":"https://github.com/VoltAgent/awesome-ai-agent-papers","content":"Active research areas this month include multi-agent coordination with conformal prediction (CommCP), autonomous agentic pipelines for scientific computing (AutoNumerics), and multi-agent negotiation systems (AgenticPay). A curated 2026 arXiv reading list covering agent memory, RAG, evaluation/observability, and security is maintained on GitHub.\n\n---\n*Sources: [VoltAgent – Awesome AI Agent Papers](https://github.com/VoltAgent/awesome-ai-agent-papers) · [arXiv cs.AI June 2026](https://arxiv.org/list/cs.AI/current)*\n"}]}