{"page":12,"pageCount":19,"perPage":10,"total":190,"posts":[{"id":"2026-06-02-06-agentic-ai-design-patterns-2026-edition","title":"Agentic AI Design Patterns (2026 Edition)","excerpt":"Practical patterns for building reliable AI agents: agent prompts must handle state persistence across many LLM calls, specify tool-selection logic, define error-recovery protocols, and set hard…","author":"Chris Harper","date":"06-02-2026","tags":["AI","Best Practices","LLM"],"readTime":1,"image":"https://github.com/cloudcodetree/cloudcodetree.github.io/releases/download/blog-images/2026-06-02-06-agentic-ai-design-patterns-2026-edition.jpg","imageSource":"https://medium.com/@dewasheesh.rana/agentic-ai-design-patterns-2026-ed-e3a5125162c5","content":"Practical patterns for building reliable AI agents: agent prompts must handle state persistence across many LLM calls, specify tool-selection logic, define error-recovery protocols, and set hard operational boundaries. The key design insight: build agent-ready interfaces with clear filters, structured results, and parseable output formats. Agents fail most often at the interface boundary, not the reasoning step.\n\n---\n*Sources: [Medium: Agentic AI Design Patterns 2026](https://medium.com/@dewasheesh.rana/agentic-ai-design-patterns-2026-ed-e3a5125162c5)*\n"},{"id":"2026-06-02-07-keep-agentic-ai-simple-a-practical-workflow","title":"Keep Agentic AI Simple: A Practical Workflow","excerpt":"A counterweight to the hype: the best agentic workflows default to hybrid (plan in IDE, agents execute in sandbox, CI + PR review before merge). Breaking work into file-level tasks with an…","author":"Chris Harper","date":"06-02-2026","tags":["AI","Best Practices"],"readTime":1,"image":"https://github.com/cloudcodetree/cloudcodetree.github.io/releases/download/blog-images/2026-06-02-07-keep-agentic-ai-simple-a-practical-workflow.jpg","imageSource":"https://timdeschryver.dev/blog/keep-agentic-ai-simple-a-practical-workflow-for-software-development","content":"A counterweight to the hype: the best agentic workflows default to hybrid (plan in IDE, agents execute in sandbox, CI + PR review before merge). Breaking work into file-level tasks with an orchestrator, then letting agents self-correct to green tests, outperforms complex multi-agent choreography for most real-world projects. The test for a well-governed workflow: every diff has a human who can explain intent, constraints, and rollback plan.\n\n---\n*Sources: [Tim Deschryver: Keep Agentic AI Simple](https://timdeschryver.dev/blog/keep-agentic-ai-simple-a-practical-workflow-for-software-development)*\n"},{"id":"2026-06-02-08-anthropics-2026-agentic-coding-trends-report","title":"Anthropic's 2026 Agentic Coding Trends Report","excerpt":"Anthropic published a comprehensive look at how coding agents are reshaping engineering work. Engineers are spending less time writing foundational code and more time orchestrating agent portfolios.…","author":"Chris Harper","date":"06-02-2026","tags":["AI","Best Practices","LLM"],"readTime":1,"image":"https://github.com/cloudcodetree/cloudcodetree.github.io/releases/download/blog-images/_default.png","content":"Anthropic published a comprehensive look at how coding agents are reshaping engineering work. Engineers are spending less time writing foundational code and more time orchestrating agent portfolios. Value now lies in defining precise objectives and guardrails, designing system architecture, and validating outputs — the classic \"senior engineer\" skills become *more* important, not less.\n\n---\n*Sources: [Anthropic Agentic Coding Trends Report (PDF)](https://resources.anthropic.com/hubfs/2026%20Agentic%20Coding%20Trends%20Report.pdf)*\n"},{"id":"2026-06-02-09-microsoft-build-2026-kicks-off-today","title":"Microsoft Build 2026 Kicks Off Today","excerpt":"Microsoft's developer conference opened this morning in San Francisco with Satya Nadella's keynote. Key announcements for engineers: the MAI model family is launching publicly (MAI-Code-1 targets…","author":"Chris Harper","date":"06-02-2026","tags":["AI","AI News","LLM"],"readTime":1,"image":"https://github.com/cloudcodetree/cloudcodetree.github.io/releases/download/blog-images/2026-06-02-09-microsoft-build-2026-kicks-off-today.jpg","imageSource":"https://news.microsoft.com/build-2026/","content":"Microsoft's developer conference opened this morning in San Francisco with Satya Nadella's keynote. Key announcements for engineers: the MAI model family is launching publicly (MAI-Code-1 targets GitHub Copilot and benchmarks at or above Claude 3.7 Sonnet on SWE-bench at lower inference cost), MAI-Thinking-1 is Microsoft's first dedicated reasoning model, and a unified Windows AI SDK bundles ONNX Runtime + DirectML into a single NuGet package. The strategic story: Microsoft is building end-to-end AI infrastructure and actively reducing OpenAI dependency. For devs, watch the GitHub Copilot and Azure AI Foundry session tracks.\n\n---\n*Sources: [Microsoft Build 2026](https://news.microsoft.com/build-2026/) · [Notebookcheck Preview](https://www.notebookcheck.net/Microsoft-Build-2026-What-to-expect-from-the-June-2-keynote.1311546.0.html) · [Windows Forum: MAI Models](https://windowsforum.com/threads/microsoft-build-2026-homegrown-ai-models-to-power-github-copilot.420887/)*\n"},{"id":"2026-06-02-10-github-copilot-switched-to-token-based-billing-y","title":"GitHub Copilot Switched to Token-Based Billing Yesterday","excerpt":"Effective June 1, GitHub Copilot replaced flat Premium Request Units with token-consumption billing. Base subscription prices are unchanged (Pro: $10/mo, Business: $19/user/mo), but agentic…","author":"Chris Harper","date":"06-02-2026","tags":["AI","AI News","LLM","Best Practices"],"readTime":1,"image":"https://github.com/cloudcodetree/cloudcodetree.github.io/releases/download/blog-images/2026-06-02-10-github-copilot-switched-to-token-based-billing-y.jpg","imageSource":"https://techcrunch.com/2026/05/30/what-a-joke-github-copilots-new-token-based-billing-spurs-consternation-among-devs/","content":"Effective June 1, GitHub Copilot replaced flat Premium Request Units with token-consumption billing. Base subscription prices are unchanged (Pro: $10/mo, Business: $19/user/mo), but agentic workflows, reasoning model calls, and large-codebase refactors are now metered. Some developers are reporting 10x–50x cost increases; one team estimated their bill jumping from $29/mo to $750/mo. Inline completions and Next Edit Suggestions remain included. If your team runs heavy agentic sessions, audit your usage now before the first new bill arrives.\n\n---\n*Sources: [TechCrunch](https://techcrunch.com/2026/05/30/what-a-joke-github-copilots-new-token-based-billing-spurs-consternation-among-devs/) · [GitHub Blog](https://github.blog/news-insights/company-news/github-copilot-is-moving-to-usage-based-billing/) · [TechTimes: 10x-50x Increases](https://www.techtimes.com/articles/317536/20260601/github-copilot-pricing-change-drives-backlash-agentic-bills-jump-10x-50x-power-users.htm)*\n"},{"id":"2026-06-02-11-anthropic-files-for-ipo-at-965b-valuation","title":"Anthropic Files for IPO at ~$965B Valuation","excerpt":"Anthropic confidentially filed a draft S-1 with the SEC on June 1, targeting an IPO expected this fall. The company reported $10.9B in projected Q2 revenue (more than double Q1's $4.8B) and is…","author":"Chris Harper","date":"06-02-2026","tags":["AI","AI News","LLM"],"readTime":1,"image":"https://github.com/cloudcodetree/cloudcodetree.github.io/releases/download/blog-images/2026-06-02-11-anthropic-files-for-ipo-at-965b-valuation.jpg","imageSource":"https://techcrunch.com/2026/06/01/anthropic-files-to-go-public/","content":"Anthropic confidentially filed a draft S-1 with the SEC on June 1, targeting an IPO expected this fall. The company reported $10.9B in projected Q2 revenue (more than double Q1's $4.8B) and is booking $47B in annualized revenue. A market debut above $1 trillion is the base case. For engineers: this signals Anthropic is likely to accelerate enterprise tooling, API investments, and Claude Code capabilities as it prepares for public scrutiny.\n\n---\n*Sources: [TechCrunch](https://techcrunch.com/2026/06/01/anthropic-files-to-go-public/) · [Washington Post](https://www.washingtonpost.com/technology/2026/06/01/anthropic-maker-claude-files-with-sec-go-public-an-ipo/) · [NBC News](https://www.nbcnews.com/business/corporations/anthropic-files-ipo-openai-rcna347897)*\n"},{"id":"2026-06-02-12-anthropic-claude-opus-48-dynamic-workflows-relea","title":"Anthropic Claude Opus 4.8 + Dynamic Workflows (Released May 28)","excerpt":"Claude Opus 4.8 shipped alongside Dynamic Workflows in Claude Code — a major capability upgrade that spawns up to 1,000 parallel subagents to tackle codebase-wide tasks (migrations, security audits,…","author":"Chris Harper","date":"06-02-2026","tags":["AI","AI News","Security","LLM"],"readTime":1,"image":"https://github.com/cloudcodetree/cloudcodetree.github.io/releases/download/blog-images/2026-06-02-12-anthropic-claude-opus-48-dynamic-workflows-relea.jpg","imageSource":"https://www.infoq.com/news/2026/06/dynamic-workflows-claude-code/","content":"Claude Opus 4.8 shipped alongside Dynamic Workflows in Claude Code — a major capability upgrade that spawns up to 1,000 parallel subagents to tackle codebase-wide tasks (migrations, security audits, multi-file rewrites). Real-world example: Jarred Sumner used it to port the Bun runtime's 750,000-line codebase from Zig to Rust in 11 days with a 99.8% test pass rate — a project estimated at 6–12 months for a dedicated team. Available on Max, Team, and Enterprise plans via CLI, desktop, and VS Code extension; also accessible through the Claude API, Bedrock, Vertex AI, and Microsoft Foundry.\n\n---\n*Sources: [InfoQ](https://www.infoq.com/news/2026/06/dynamic-workflows-claude-code/) · [MarkTechPost](https://www.marktechpost.com/2026/05/28/anthropic-ships-claude-opus-4-8-alongside-dynamic-workflows-and-cheaper-fast-mode-with-workflows-capped-at-1000-subagents/) · [ITBrief](https://itbrief.news/story/anthropic-launches-dynamic-workflows-in-claude-code)*\n"},{"id":"2026-06-01-01-claude-code-dynamic-workflows-run-hundreds-of-pa","title":"Claude Code Dynamic Workflows: Run Hundreds of Parallel Subagents","excerpt":"Anthropic shipped Dynamic Workflows alongside Claude Opus 4.8, letting you orchestrate up to 1,000 subagents (16 concurrent) from a single JavaScript script that Claude writes for you. The key…","author":"Chris Harper","date":"06-01-2026","tags":["AI","Developer Tools","LLM","Best Practices"],"readTime":1,"image":"https://github.com/cloudcodetree/cloudcodetree.github.io/releases/download/blog-images/_default.png","content":"Anthropic shipped Dynamic Workflows alongside Claude Opus 4.8, letting you orchestrate up to 1,000 subagents (16 concurrent) from a single JavaScript script that Claude writes for you. The key architectural insight: the orchestration plan moves into code rather than Claude's context window, so intermediate results live in script variables and Claude only holds the final answer — dramatically reducing context bloat on large codebase migrations. Requires Claude Code v2.1.154+ and is available to Enterprise, Team, and Max users.\n\n---\n*Sources: [MarkTechPost](https://www.marktechpost.com/2026/05/28/anthropic-ships-claude-opus-4-8-alongside-dynamic-workflows-and-cheaper-fast-mode-with-workflows-capped-at-1000-subagents/) · [Dynamic Workflows Guide (MindStudio)](https://www.mindstudio.ai/blog/claude-opus-4-8-dynamic-workflows-parallel-sub-agents)*\n"},{"id":"2026-06-01-02-the-right-claudemd-structure-for-agentic-coding","title":"The Right CLAUDE.md Structure for Agentic Coding","excerpt":"Your CLAUDE.md file is the single most impactful thing you can configure for Claude Code sessions — it onboards every new session and shapes every agent decision. Best practices: cover…","author":"Chris Harper","date":"06-01-2026","tags":["AI","Developer Tools","LLM","Best Practices"],"readTime":1,"image":"https://github.com/cloudcodetree/cloudcodetree.github.io/releases/download/blog-images/_default.png","content":"Your CLAUDE.md file is the single most impactful thing you can configure for Claude Code sessions — it onboards every new session and shapes every agent decision. Best practices: cover build/lint/test commands by stack, spell out import patterns and naming rules, and explicitly list what Claude should *not* do. Critically, skip project directory trees — they go stale immediately and the agent can explore the filesystem directly. Keep it under ~500 lines or Claude starts treating it as noise.\n\n---\n*Sources: [Claude Code Best Practices Docs](https://code.claude.com/docs/en/best-practices) · [Implementation Guide (groff.dev)](https://www.groff.dev/blog/implementing-claude-md-agent-skills)*\n"},{"id":"2026-06-01-03-5-claude-code-workflow-patterns-beyond-one-shot-","title":"5 Claude Code Workflow Patterns Beyond One-Shot Prompts","excerpt":"Plan mode separates exploration from execution: never let Claude jump straight to coding without first understanding the problem scope. Use subagents for naturally independent parallel tasks (three…","author":"Chris Harper","date":"06-01-2026","tags":["AI","Developer Tools","LLM"],"readTime":1,"image":"https://github.com/cloudcodetree/cloudcodetree.github.io/releases/download/blog-images/2026-06-01-03-5-claude-code-workflow-patterns-beyond-one-shot-.jpg","imageSource":"https://www.mindstudio.ai/blog/claude-code-agentic-workflow-patterns","content":"Plan mode separates exploration from execution: never let Claude jump straight to coding without first understanding the problem scope. Use subagents for naturally independent parallel tasks (three modules needing tests\n\n---\n*Sources: three subagents). Always ask Claude to show evidence — test output, the command run and its return — rather than asserting success. Watch your context: at 70% Claude loses precision, at 85% hallucinations increase, at 90%+ responses become erratic. → [MindStudio](https://www.mindstudio.ai/blog/claude-code-agentic-workflow-patterns) · [Level Up Coding](https://levelup.gitconnected.com/claude-code-best-practices-12-patterns-agentic-engineers-use-65264e3eb919)*\n"}]}