{"page":13,"pageCount":19,"perPage":10,"total":190,"posts":[{"id":"2026-06-01-04-multi-tool-ai-coding-stacks-are-now-the-norm","title":"Multi-Tool AI Coding Stacks Are Now the Norm","excerpt":"70% of developers surveyed by The Pragmatic Engineer use 2–4 AI coding tools simultaneously. The dominant stack: Cursor for daily file-level editing (72% autocomplete acceptance rate with Supermaven)…","author":"Chris Harper","date":"06-01-2026","tags":["AI","Developer Tools","LLM"],"readTime":1,"image":"https://github.com/cloudcodetree/cloudcodetree.github.io/releases/download/blog-images/2026-06-01-04-multi-tool-ai-coding-stacks-are-now-the-norm.jpg","imageSource":"https://www.sitepoint.com/claude-code-vs-cursor-vs-copilot-the-2026-developer-comparison/","content":"70% of developers surveyed by The Pragmatic Engineer use 2–4 AI coding tools simultaneously. The dominant stack: Cursor for daily file-level editing (72% autocomplete acceptance rate with Supermaven) plus Claude Code for complex multi-file or whole-repository tasks (80.8% on SWE-bench Verified, 1M token context). GitHub Copilot remains the accessibility play at $10/month for teams who don't want to switch IDEs.\n\n---\n*Sources: [Sitepoint Comparison](https://www.sitepoint.com/claude-code-vs-cursor-vs-copilot-the-2026-developer-comparison/)*\n"},{"id":"2026-06-01-05-webmcp-expose-your-websites-ui-as-structured-ai-","title":"WebMCP: Expose Your Website's UI as Structured AI Agent Tools","excerpt":"Google's proposed W3C standard (co-developed with Microsoft) landed in Chrome 149 as a public origin trial. Instead of agents brute-forcing DOM pixel-reading, you annotate HTML forms or define…","author":"Chris Harper","date":"06-01-2026","tags":["AI","Developer Tools"],"readTime":1,"image":"https://github.com/cloudcodetree/cloudcodetree.github.io/releases/download/blog-images/_default.png","content":"Google's proposed W3C standard (co-developed with Microsoft) landed in Chrome 149 as a public origin trial. Instead of agents brute-forcing DOM pixel-reading, you annotate HTML forms or define JavaScript functions to expose clean tool interfaces directly to browser AI agents. Two APIs: declarative (annotate existing HTML) and imperative (define typed tool schemas in JS). If you build web apps that users interact with via AI agents, opt into the origin trial now to shape the standard.\n\n---\n*Sources: [Chrome for Developers](https://developer.chrome.com/docs/ai/webmcp) · [DEV Community explainer](https://dev.to/soumyadeepdey/why-webmcp-is-the-most-important-thing-google-announced-at-io-2026-and-nobodys-talking-about-it-2edf)*\n"},{"id":"2026-06-01-06-context-engineering-has-superseded-prompt-engine","title":"Context Engineering Has Superseded Prompt Engineering","excerpt":"The field has reached consensus: if the model understands what you want but lacks information to do it well, that's a context problem, not a prompt problem. Context engineering is the discipline of…","author":"Chris Harper","date":"06-01-2026","tags":["AI","Best Practices","LLM"],"readTime":1,"image":"https://github.com/cloudcodetree/cloudcodetree.github.io/releases/download/blog-images/2026-06-01-06-context-engineering-has-superseded-prompt-engine.jpg","imageSource":"https://neo4j.com/blog/agentic-ai/context-engineering-vs-prompt-engineering/","content":"The field has reached consensus: if the model understands what you want but lacks information to do it well, that's a context problem, not a prompt problem. Context engineering is the discipline of designing systems that provide the right information, in the right format, at the right time — treating context as infrastructure with proper data curation, privacy controls, and logs. Stanford's \"lost in the middle\" research remains the key empirical grounding: models perform best when critical information appears at the very beginning or end of long contexts. Practical sweet spot for most tasks: 150–300 words of targeted context.\n\n---\n*Sources: [Neo4j Blog](https://neo4j.com/blog/agentic-ai/context-engineering-vs-prompt-engineering/) · [Firecrawl Blog](https://www.firecrawl.dev/blog/context-engineering) · [Substack guide](https://karozieminski.substack.com/p/context-engineering-product-builders-guide-2026)*\n"},{"id":"2026-06-01-07-mcp-security-production-grade-best-practices","title":"MCP Security: Production-Grade Best Practices","excerpt":"Treat all AI-generated content as untrusted input including everything returned from MCP servers: tool definitions, resources, prompts, and responses. Run MCP servers that touch the host environment…","author":"Chris Harper","date":"06-01-2026","tags":["AI","Best Practices"],"readTime":1,"image":"https://github.com/cloudcodetree/cloudcodetree.github.io/releases/download/blog-images/2026-06-01-07-mcp-security-production-grade-best-practices.jpg","imageSource":"https://www.coalitionforsecureai.org/securing-the-ai-agent-revolution-a-practical-guide-to-mcp-security/","content":"Treat all AI-generated content as untrusted input including everything returned from MCP servers: tool definitions, resources, prompts, and responses. Run MCP servers that touch the host environment in containers with additional sandboxing (gVisor, Kata Containers, or SELinux). Never write to stdout in STDIO mode — it corrupts the JSON-RPC stream; log to stderr instead. Use read-only modes for untrusted agents, scoped permissions, and network restrictions. Auth-propagation testing is the top reported integration blocker in enterprise pilots — prioritize it early.\n\n---\n*Sources: [Coalition for Secure AI](https://www.coalitionforsecureai.org/securing-the-ai-agent-revolution-a-practical-guide-to-mcp-security/) · [Red Hat Developer](https://developers.redhat.com/articles/2026/01/08/building-effective-ai-agents-mcp)*\n"},{"id":"2026-06-01-08-fine-tuning-with-rag-to-teach-llms-new-skills-ic","title":"Fine-Tuning with RAG to Teach LLMs New Skills (ICLR 2026)","excerpt":"A well-received paper at ICLR 2026 proposes converting inference-time retrieval into learned competence via distillation: extract compact hints from agent failures, use them to generate improved…","author":"Chris Harper","date":"06-01-2026","tags":["AI","Best Practices","LLM"],"readTime":1,"image":"https://github.com/cloudcodetree/cloudcodetree.github.io/releases/download/blog-images/2026-06-01-08-fine-tuning-with-rag-to-teach-llms-new-skills-ic.jpg","imageSource":"https://arxiv.org/abs/2510.01375","content":"A well-received paper at ICLR 2026 proposes converting inference-time retrieval into learned competence via distillation: extract compact hints from agent failures, use them to generate improved teacher trajectories, then fine-tune. The approach turns what RAG retrieves at runtime into durable model knowledge. Validated on ALFWorld (household tasks) and WebShop (online shopping). Relevant for teams hitting the ceiling of pure RAG and evaluating whether fine-tuning is worth the investment.\n\n---\n*Sources: [arXiv:2510.01375](https://arxiv.org/abs/2510.01375)*\n"},{"id":"2026-06-01-09-agentic-rag-patterns-from-retrieval-to-reasoning","title":"Agentic RAG Patterns: From Retrieval to Reasoning","excerpt":"The Agentic RAG survey (arXiv) documents how autonomous agents embedded into RAG pipelines use reflection, planning, tool use, and multi-agent collaboration to go beyond single-pass retrieval. Key…","author":"Chris Harper","date":"06-01-2026","tags":["AI","Best Practices"],"readTime":1,"image":"https://github.com/cloudcodetree/cloudcodetree.github.io/releases/download/blog-images/2026-06-01-09-agentic-rag-patterns-from-retrieval-to-reasoning.jpg","imageSource":"https://arxiv.org/abs/2501.09136","content":"The Agentic RAG survey (arXiv) documents how autonomous agents embedded into RAG pipelines use reflection, planning, tool use, and multi-agent collaboration to go beyond single-pass retrieval. Key patterns: iterative refinement (re-query on low-confidence retrieval), cross-agent verification (one agent retrieves, another critiques), and tool-augmented retrieval. Organizations using MCP for data/tool access paired with A2A protocols for multi-agent collaboration are seeing 40–60% faster workflow development than single-protocol approaches.\n\n---\n*Sources: [arXiv:2501.09136](https://arxiv.org/abs/2501.09136) · [onereach.ai guide](https://onereach.ai/blog/best-practices-for-ai-agent-implementations/)*\n"},{"id":"2026-06-01-10-google-antigravity-20-agent-first-dev-platform-n","title":"Google Antigravity 2.0: Agent-First Dev Platform Now Generally Available","excerpt":"Google's Antigravity 2.0 desktop app (available via I/O 2026) introduces dynamic subagents for parallel workflows, scheduled background tasks, and deep Firebase/Android Studio integration. The…","author":"Chris Harper","date":"06-01-2026","tags":["AI","Best Practices","LLM"],"readTime":1,"image":"https://github.com/cloudcodetree/cloudcodetree.github.io/releases/download/blog-images/2026-06-01-10-google-antigravity-20-agent-first-dev-platform-n.jpg","imageSource":"https://blog.google/innovation-and-ai/technology/developers-tools/google-io-2026-developer-highlights/","content":"Google's Antigravity 2.0 desktop app (available via I/O 2026) introduces dynamic subagents for parallel workflows, scheduled background tasks, and deep Firebase/Android Studio integration. The Managed Agents API (single API call spins up a reasoning agent with tool access and isolated Linux sandbox) is now GA via the Gemini API. Organizations can also extend agents with custom skills via markdown files — the same pattern Claude Code uses for CLAUDE.md.\n\n---\n*Sources: [Google I/O Developer Highlights](https://blog.google/innovation-and-ai/technology/developers-tools/google-io-2026-developer-highlights/) · [Antigravity 2.0 Guide](https://www.aimadetools.com/blog/antigravity-2-complete-guide/)*\n"},{"id":"2026-06-01-11-anthropic-releases-claude-opus-48-with-dynamic-w","title":"Anthropic Releases Claude Opus 4.8 with Dynamic Workflows, Raises $65B at $965B Valuation","excerpt":"Anthropic shipped Claude Opus 4.8 on May 28 — just 41 days after Opus 4.7 — alongside Dynamic Workflows (parallel subagent orchestration) and a cheaper Fast Mode for lower-latency tasks.…","author":"Chris Harper","date":"06-01-2026","tags":["AI","AI News","LLM","Best Practices"],"readTime":1,"image":"https://github.com/cloudcodetree/cloudcodetree.github.io/releases/download/blog-images/2026-06-01-11-anthropic-releases-claude-opus-48-with-dynamic-w.jpg","imageSource":"https://techcrunch.com/2026/05/28/anthropic-releases-opus-4-8-with-new-dynamic-workflow-tool/","content":"Anthropic shipped Claude Opus 4.8 on May 28 — just 41 days after Opus 4.7 — alongside Dynamic Workflows (parallel subagent orchestration) and a cheaper Fast Mode for lower-latency tasks. Simultaneously, the company announced a $65 billion funding round valuing it at $965 billion, one of the largest private fundraises in history. The cadence of model releases is accelerating significantly.\n\n---\n*Sources: [TechCrunch](https://techcrunch.com/2026/05/28/anthropic-releases-opus-4-8-with-new-dynamic-workflow-tool/) · [Fortune](https://fortune.com/2026/05/29/anthropic-raises-65-billion-at-record-965-billion-valuation-promises-mythos-ai-model-in-wide-release-in-coming-weeks-releases-claude-opus-4-8/)*\n"},{"id":"2026-06-01-12-anthropics-mythos-model-near-superhuman-at-secur","title":"Anthropic's Mythos Model: Near-Superhuman at Security and Math, Coming Soon to Public","excerpt":"Mythos (unveiled April 7, currently restricted to ~50 defensive-security partners via Project Glasswing) scores 97.6% on the 2026 USA Mathematical Olympiad vs 42.3% for Opus 4.6, and successfully…","author":"Chris Harper","date":"06-01-2026","tags":["AI","AI News","Security","LLM"],"readTime":1,"image":"https://github.com/cloudcodetree/cloudcodetree.github.io/releases/download/blog-images/2026-06-01-12-anthropics-mythos-model-near-superhuman-at-secur.jpg","imageSource":"https://www.theregister.com/security/2026/05/25/anthropic-to-release-mythos-class-models-to-the-public/5245596","content":"Mythos (unveiled April 7, currently restricted to ~50 defensive-security partners via Project Glasswing) scores 97.6% on the 2026 USA Mathematical Olympiad vs 42.3% for Opus 4.6, and successfully exploits Firefox 147 vulnerabilities in 181 of several hundred attempts vs 2 for Opus 4.6. The UK AI Security Institute reports 73% success on expert-level hacking tasks that no model could complete before April 2025. Anthropic plans a general release once stronger safeguards are in place — likely paired with an upcoming Opus model. Developers building security tooling should watch this closely.\n\n---\n*Sources: [The Register](https://www.theregister.com/security/2026/05/25/anthropic-to-release-mythos-class-models-to-the-public/5245596) · [Anthropic Glasswing](https://www.anthropic.com/glasswing)*\n"},{"id":"2026-06-01-13-google-io-2026-gemini-35-flash-is-now-ga-faster-","title":"Google I/O 2026: Gemini 3.5 Flash is Now GA — Faster Than Frontier, Stronger Than Pro","excerpt":"Gemini 3.5 Flash is generally available today via the Gemini API, Google AI Studio, Android Studio, and the Antigravity platform. It outperforms Gemini 3.1 Pro on coding and agentic benchmarks…","author":"Chris Harper","date":"06-01-2026","tags":["AI","AI News","React"],"readTime":1,"image":"https://github.com/cloudcodetree/cloudcodetree.github.io/releases/download/blog-images/2026-06-01-13-google-io-2026-gemini-35-flash-is-now-ga-faster-.jpg","imageSource":"https://blog.google/innovation-and-ai/models-and-research/gemini-models/gemini-3-5/","content":"Gemini 3.5 Flash is generally available today via the Gemini API, Google AI Studio, Android Studio, and the Antigravity platform. It outperforms Gemini 3.1 Pro on coding and agentic benchmarks (Terminal-Bench 2.1: 76.2%, MCP Atlas: 83.6%) while running four times faster than other frontier models. Notable for developers: Android Studio can now migrate React Native or web apps to native Kotlin in hours, and the Build with Gemini XPRIZE Hackathon has a $2M prize pool.\n\n---\n*Sources: [Google Blog](https://blog.google/innovation-and-ai/models-and-research/gemini-models/gemini-3-5/) · [Google Developers Blog](https://developers.googleblog.com/all-the-news-from-the-google-io-2026-developer-keynote/)*\n"}]}