{"page":14,"pageCount":19,"perPage":10,"total":190,"posts":[{"id":"2026-06-01-14-github-copilot-switches-to-token-based-billing-t","title":"GitHub Copilot Switches to Token-Based Billing Today — No More Flat Pricing","excerpt":"Effective June 1, 2026, GitHub Copilot transitions from unlimited flat-rate plans to usage-based billing via \"GitHub AI Credits\" ($0.01 each). Base plan prices are unchanged but token-heavy workflows…","author":"Chris Harper","date":"06-01-2026","tags":["AI","AI News","LLM","Best Practices"],"readTime":1,"image":"https://github.com/cloudcodetree/cloudcodetree.github.io/releases/download/blog-images/2026-06-01-14-github-copilot-switches-to-token-based-billing-t.jpg","imageSource":"https://github.blog/news-insights/company-news/github-copilot-is-moving-to-usage-based-billing/","content":"Effective June 1, 2026, GitHub Copilot transitions from unlimited flat-rate plans to usage-based billing via \"GitHub AI Credits\" ($0.01 each). Base plan prices are unchanged but token-heavy workflows — chat, agentic coding sessions, code review — are now metered. The previous fallback to a cheaper model when premium requests ran out is gone. Code completions and next-edit suggestions remain unlimited. Developers with heavy agentic Copilot usage should audit their workflows now; the bill shock risk is real for power users.\n\n---\n*Sources: [GitHub Blog](https://github.blog/news-insights/company-news/github-copilot-is-moving-to-usage-based-billing/) · [Visual Studio Magazine](https://visualstudiomagazine.com/articles/2026/04/27/devs-sound-off-on-usage-based-copilot-pricing-change-you-will-get-less-but-pay-the-same-price.aspx)*\n"},{"id":"2026-05-31-01-pair-a-terminal-agent-with-an-ide-assistant","title":"Pair a Terminal Agent with an IDE Assistant","excerpt":"The workflow pattern most productive developers use in 2026 is combining two tools: an IDE-integrated assistant (Cursor or GitHub Copilot) for day-to-day coding, and a terminal-based agent (Claude…","author":"Chris Harper","date":"05-31-2026","tags":["AI","Developer Tools","LLM","Best Practices"],"readTime":1,"image":"https://github.com/cloudcodetree/cloudcodetree.github.io/releases/download/blog-images/_default.png","content":"The workflow pattern most productive developers use in 2026 is combining two tools: an IDE-integrated assistant (Cursor or GitHub Copilot) for day-to-day coding, and a terminal-based agent (Claude Code) for large autonomous tasks like full-file refactors or cross-repo work. Claude Code leads SWE-bench Verified at 80.9%, but Copilot's autocomplete and Cursor's Composer-driven multi-file edits remain unmatched in the IDE. Tool fit beats tool ranking.\n\n---\n*Sources: [AI Code Assistants Compared 2026](https://jobsbyculture.com/blog/ai-code-assistants-compared-2026) · [Best AI for Coding: Reddit's Top Picks](https://www.aitooldiscovery.com/guides/best-ai-for-coding-reddit)*\n"},{"id":"2026-05-31-02-addy-osmanis-llm-coding-workflow-for-2026","title":"Addy Osmani's LLM Coding Workflow for 2026","excerpt":"Google's engineering lead lays out a disciplined approach: write a spec before touching the AI, break work into small focused prompts (one function, one bug, one feature at a time), and build…","author":"Chris Harper","date":"05-31-2026","tags":["AI","Developer Tools","LLM","Best Practices"],"readTime":1,"image":"https://github.com/cloudcodetree/cloudcodetree.github.io/releases/download/blog-images/2026-05-31-02-addy-osmanis-llm-coding-workflow-for-2026.jpg","imageSource":"https://addyosmani.com/blog/ai-coding-workflow/","content":"Google's engineering lead lays out a disciplined approach: write a spec before touching the AI, break work into small focused prompts (one function, one bug, one feature at a time), and build stronger quality gates — tests, monitoring, and AI-on-AI code reviews. The key mindset shift: treat the LLM as a pair programmer that needs clear direction, not an autonomous agent. \"If you come to the table with solid software engineering fundamentals, the AI will amplify your productivity multifold.\"\n\n---\n*Sources: [AddyOsmani.com](https://addyosmani.com/blog/ai-coding-workflow/) · [Medium](https://medium.com/@addyosmani/my-llm-coding-workflow-going-into-2026-52fe1681325e)*\n"},{"id":"2026-05-31-03-spec-driven-development-sdd-is-replacing-vibe-co","title":"Spec-Driven Development (SDD) Is Replacing Vibe Coding","excerpt":"SDD has emerged as the structured answer to vibe coding's failure mode (plausible code that drifts from intent as projects scale). The method: write an executable, version-controlled spec first,…","author":"Chris Harper","date":"05-31-2026","tags":["AI","Developer Tools","AWS","LLM"],"readTime":1,"image":"https://github.com/cloudcodetree/cloudcodetree.github.io/releases/download/blog-images/2026-05-31-03-spec-driven-development-sdd-is-replacing-vibe-co.jpg","imageSource":"https://towardsdatascience.com/from-vibe-coding-to-spec-driven-development/","content":"SDD has emerged as the structured answer to vibe coding's failure mode (plausible code that drifts from intent as projects scale). The method: write an executable, version-controlled spec first, derive an implementation plan, break it into atomic tasks, then generate code. Every major AI coding tool — Claude Code, Cursor, GitHub Spec Kit, AWS Kiro, Google Antigravity — now ships its own SDD flavor. AWS Kiro reports real customer cases where 40-hour features shipped in under 8 human hours when authored spec-first.\n\n---\n*Sources: [Towards Data Science](https://towardsdatascience.com/from-vibe-coding-to-spec-driven-development/) · [Augment Code Guide](https://www.augmentcode.com/guides/what-is-spec-driven-development) · [Medium/Predict](https://medium.com/predict/spec-driven-development-with-ai-coding-agents-the-definitive-guide-453fba1baf39)*\n"},{"id":"2026-05-31-04-prompting-tips-that-work-across-claude-gpt-5-and","title":"Prompting Tips That Work Across Claude, GPT-5, and Gemini in 2026","excerpt":"Six months of cross-model testing surfaces a consistent set of techniques that deliver 28–30% fewer errors on structured tasks: chain-of-thought scaffolds, persona + goal + anti-goal triples, XML…","author":"Chris Harper","date":"05-31-2026","tags":["AI","Developer Tools","LLM"],"readTime":1,"image":"https://github.com/cloudcodetree/cloudcodetree.github.io/releases/download/blog-images/_default.png","content":"Six months of cross-model testing surfaces a consistent set of techniques that deliver 28–30% fewer errors on structured tasks: chain-of-thought scaffolds, persona + goal + anti-goal triples, XML tags over markdown formatting, contrastive examples, and prompt chaining. GPT-5 is increasingly outcome-oriented (describe the goal, let it plan), while Claude locks in tight on roles and constraints. Self-critique prompts — asking the model to review its own output — consistently surface gaps before they compound.\n\n---\n*Sources: [TechRepublic](https://www.techrepublic.com/article/news-ai-prompting-tips-chatgpt-claude-gemini-2026/) · [Medium](https://medium.com/@christianaistudio/6-months-testing-every-ai-prompting-technique-what-actually-works-in-2026-chatgpt-claude-gemini-e791005795e5)*\n"},{"id":"2026-05-31-05-context-engineering-is-the-new-prompt-engineerin","title":"Context Engineering Is the New Prompt Engineering","excerpt":"The framing gaining traction in 2026: context engineering is the discipline of curating the optimal set of tokens at inference time, including everything beyond the prompt itself. Anthropic research…","author":"Chris Harper","date":"05-31-2026","tags":["AI","Best Practices","LLM"],"readTime":1,"image":"https://github.com/cloudcodetree/cloudcodetree.github.io/releases/download/blog-images/2026-05-31-05-context-engineering-is-the-new-prompt-engineerin.jpg","imageSource":"https://www.anthropic.com/engineering/effective-context-engineering-for-ai-agents","content":"The framing gaining traction in 2026: context engineering is the discipline of curating the optimal set of tokens at inference time, including everything beyond the prompt itself. Anthropic research shows contexts above 100K tokens degrade reasoning quality; Chroma tested 18 frontier models and found every one nosedived (some from 95% to 60% accuracy) as input grew. Practical guidance: keep context small and high-signal, dynamically load only relevant tools (tool overload above ~30 tools breaks selection accuracy), and document your context strategy like you would system architecture.\n\n---\n*Sources: [Anthropic Engineering Blog](https://www.anthropic.com/engineering/effective-context-engineering-for-ai-agents) · [LogRocket Blog](https://blog.logrocket.com/llm-context-problem-strategies-2026/) · [Weaviate](https://weaviate.io/blog/context-engineering)*\n"},{"id":"2026-05-31-06-agentic-rag-embedding-agents-inside-the-retrieva","title":"Agentic RAG: Embedding Agents Inside the Retrieval Pipeline","excerpt":"A new ArXiv survey (2501.09136) and the Agent-UniRAG framework (2505.22571) document the shift from static RAG to agentic RAG, where autonomous agents dynamically manage retrieval strategies using…","author":"Chris Harper","date":"05-31-2026","tags":["AI","Best Practices","LLM"],"readTime":1,"image":"https://github.com/cloudcodetree/cloudcodetree.github.io/releases/download/blog-images/2026-05-31-06-agentic-rag-embedding-agents-inside-the-retrieva.jpg","imageSource":"https://arxiv.org/abs/2501.09136","content":"A new ArXiv survey (2501.09136) and the Agent-UniRAG framework (2505.22571) document the shift from static RAG to agentic RAG, where autonomous agents dynamically manage retrieval strategies using reflection, planning, tool use, and multi-agent collaboration. The key insight from Phil Schmid (Hugging Face): most agent failures aren't model failures — they're context failures. Weak retrieval creates problems; weak prompts make systems unusable. LangChain formalizes four context strategies: write, select, compress, and isolate.\n\n---\n*Sources: [ArXiv Agentic RAG Survey](https://arxiv.org/abs/2501.09136) · [Agent-UniRAG](https://arxiv.org/pdf/2505.22571) · [LangChain Docs](https://docs.langchain.com/oss/python/langchain/context-engineering)*\n"},{"id":"2026-05-31-07-microsoft-open-sources-rampart-and-clarity-for-a","title":"Microsoft Open-Sources RAMPART and Clarity for AI Agent Safety","excerpt":"Released May 20, RAMPART (Risk Assessment and Measurement Platform for Agentic Red Teaming) is a Pytest-native framework for writing and running safety tests against AI agents — adversarial and…","author":"Chris Harper","date":"05-31-2026","tags":["AI","Best Practices"],"readTime":1,"image":"https://github.com/cloudcodetree/cloudcodetree.github.io/releases/download/blog-images/2026-05-31-07-microsoft-open-sources-rampart-and-clarity-for-a.jpg","imageSource":"https://www.microsoft.com/en-us/security/blog/2026/05/20/introducing-rampart-and-clarity-open-source-tools-to-bring-safety-into-agent-development-workflow/","content":"Released May 20, RAMPART (Risk Assessment and Measurement Platform for Agentic Red Teaming) is a Pytest-native framework for writing and running safety tests against AI agents — adversarial and benign — directly in CI pipelines. It's built on top of PyRIT, Microsoft's existing red-teaming automation library. Clarity is a structured design tool that guides teams through problem definition, solution options, and failure analysis before writing any code. The philosophy: \"AI safety has to become a continuous engineering discipline rather than a periodic checkpoint.\"\n\n---\n*Sources: [Microsoft Security Blog](https://www.microsoft.com/en-us/security/blog/2026/05/20/introducing-rampart-and-clarity-open-source-tools-to-bring-safety-into-agent-development-workflow/) · [The Register](https://www.theregister.com/security/2026/05/21/microsoft-open-sources-agentic-ai-safety-tools/5243822)*\n"},{"id":"2026-05-31-08-vibe-coding-has-a-quality-problem-and-the-number","title":"Vibe Coding Has a Quality Problem — And the Numbers Are Stark","excerpt":"A December 2025 analysis of 470 GitHub PRs found AI-generated code was 1.7× more likely to have major issues and 2.74× more prone to security vulnerabilities than human-written code. LLMs generate…","author":"Chris Harper","date":"05-31-2026","tags":["AI","Best Practices","Security","LLM"],"readTime":1,"image":"https://github.com/cloudcodetree/cloudcodetree.github.io/releases/download/blog-images/2026-05-31-08-vibe-coding-has-a-quality-problem-and-the-number.jpg","imageSource":"https://hexaware.com/blogs/level-up-your-ai-workflow-11-vibe-coding-best-practices-for-real-world-builders/","content":"A December 2025 analysis of 470 GitHub PRs found AI-generated code was 1.7× more likely to have major issues and 2.74× more prone to security vulnerabilities than human-written code. LLMs generate vulnerable code at rates between 9.8% and 42.1% across benchmarks. The practitioner consensus: robust CI (automated tests on every commit, code style enforcement, staging deployments) is non-negotiable when AI is contributing significant code volume. Teams that ship well are orchestrators, not prompters.\n\n---\n*Sources: [Hexaware Vibe Coding Best Practices](https://hexaware.com/blogs/level-up-your-ai-workflow-11-vibe-coding-best-practices-for-real-world-builders/) · [Softr Guide](https://www.softr.io/blog/vibe-coding-best-practices)*\n"},{"id":"2026-05-31-09-anthropic-launches-self-hosted-sandboxes-and-mcp","title":"Anthropic Launches Self-Hosted Sandboxes and MCP Tunnels for Claude Agents","excerpt":"Announced at Code with Claude London (May 19), Claude Managed Agents now supports two enterprise features. Self-hosted sandboxes (public beta) let teams run tool execution inside their own cloud…","author":"Chris Harper","date":"05-31-2026","tags":["AI","AI News","Security","LLM"],"readTime":1,"image":"https://github.com/cloudcodetree/cloudcodetree.github.io/releases/download/blog-images/2026-05-31-09-anthropic-launches-self-hosted-sandboxes-and-mcp.jpg","imageSource":"https://thenewstack.io/anthropic-mcp-tunnels-sandboxes/","content":"Announced at Code with Claude London (May 19), Claude Managed Agents now supports two enterprise features. Self-hosted sandboxes (public beta) let teams run tool execution inside their own cloud environment (Cloudflare, Daytona, Modal, Vercel, or custom) while Anthropic continues to handle orchestration and context management. MCP tunnels (research preview) route MCP server traffic through a private network via a lightweight outbound-only gateway — no inbound firewall rules, no public endpoints, end-to-end encrypted. Significant for enterprise teams with data residency or security perimeter requirements.\n\n---\n*Sources: [The New Stack](https://thenewstack.io/anthropic-mcp-tunnels-sandboxes/) · [The Decoder](https://the-decoder.com/anthropic-adds-self-hosted-sandboxes-and-mcp-tunnels-to-claude-managed-agents/) · [InfoQ](https://www.infoq.com/news/2026/05/claude-mcp-tunnels/)*\n"}]}