{"page":15,"pageCount":19,"perPage":10,"total":190,"posts":[{"id":"2026-05-31-10-deepseek-makes-75-v4-pro-price-cut-permanent","title":"DeepSeek Makes 75% V4-Pro Price Cut Permanent","excerpt":"DeepSeek confirmed on May 22 that its promotional V4-Pro discount is now permanent. New pricing: $0.435/M cache-miss input tokens and $0.87/M output tokens — roughly 11.5× cheaper than GPT-5.5 on…","author":"Chris Harper","date":"05-31-2026","tags":["AI","AI News","LLM"],"readTime":1,"image":"https://github.com/cloudcodetree/cloudcodetree.github.io/releases/download/blog-images/2026-05-31-10-deepseek-makes-75-v4-pro-price-cut-permanent.jpg","imageSource":"https://www.engadget.com/2180062/deepseek-permanently-reduces-the-price-of-its-flagship-v4-model-by-75-percent/","content":"DeepSeek confirmed on May 22 that its promotional V4-Pro discount is now permanent. New pricing: $0.435/M cache-miss input tokens and $0.87/M output tokens — roughly 11.5× cheaper than GPT-5.5 on input and 34.5× cheaper on output. This targets the frontier capability tier directly (V4-Pro scores 80.6% on SWE-bench), not the budget segment, making it a serious cost alternative for high-volume production workloads. The promotional deadline had been May 31.\n\n---\n*Sources: [Engadget](https://www.engadget.com/2180062/deepseek-permanently-reduces-the-price-of-its-flagship-v4-model-by-75-percent/) · [Codersera](https://codersera.com/blog/deepseek-v4-pro-permanent-price-cut-may-2026/) · [APIdog](https://apidog.com/blog/deepseek-v4-pro-permanent-price-cut/)*\n"},{"id":"2026-05-31-11-google-io-2026-gemini-35-flash-ga-gemini-spark-p","title":"Google I/O 2026: Gemini 3.5 Flash GA, Gemini Spark Personal Agent, $2M Hackathon","excerpt":"Google's developer conference (May 19–20) shipped several items developers should track: Gemini 3.5 Flash is now generally available via the Gemini API, Google AI Studio, and Android Studio. Gemini…","author":"Chris Harper","date":"05-31-2026","tags":["AI","AI News"],"readTime":1,"image":"https://github.com/cloudcodetree/cloudcodetree.github.io/releases/download/blog-images/2026-05-31-11-google-io-2026-gemini-35-flash-ga-gemini-spark-p.jpg","imageSource":"https://developers.googleblog.com/all-the-news-from-the-google-io-2026-developer-keynote/","content":"Google's developer conference (May 19–20) shipped several items developers should track: Gemini 3.5 Flash is now generally available via the Gemini API, Google AI Studio, and Android Studio. Gemini Spark is a new 24/7 personal AI agent that operates in the background on phones and laptops. Google also launched the Build with Gemini XPRIZE Hackathon with a $2 million prize pool, described as the largest ever for a hackathon.\n\n---\n*Sources: [Google Developers Blog](https://developers.googleblog.com/all-the-news-from-the-google-io-2026-developer-keynote/) · [Google Blog](https://blog.google/innovation-and-ai/technology/ai/google-io-2026-all-our-announcements/)*\n"},{"id":"2026-05-31-12-nvidia-and-google-optimize-gemma-4-for-local-rtx","title":"NVIDIA and Google Optimize Gemma 4 for Local RTX Deployment","excerpt":"Google's open-source Gemma 4 model family (released March 31, Apache 2.0) now has optimized NVIDIA RTX support for local agentic workflows. The four model variants — E2B, E4B, 26B, 31B — span edge…","author":"Chris Harper","date":"05-31-2026","tags":["AI","AI News","LLM","Best Practices"],"readTime":1,"image":"https://github.com/cloudcodetree/cloudcodetree.github.io/releases/download/blog-images/2026-05-31-12-nvidia-and-google-optimize-gemma-4-for-local-rtx.jpg","imageSource":"https://blogs.nvidia.com/blog/rtx-ai-garage-open-models-google-gemma-4/","content":"Google's open-source Gemma 4 model family (released March 31, Apache 2.0) now has optimized NVIDIA RTX support for local agentic workflows. The four model variants — E2B, E4B, 26B, 31B — span edge devices through workstation GPUs and DGX Spark. The 31B variant currently ranks #3 among open models on the Arena AI text leaderboard. Models include multimodal capabilities (vision, video, audio), native function calling for agent applications, and multilingual support for 35+ languages. Practically useful for developers who want frontier-class open models running locally.\n\n---\n*Sources: [NVIDIA Blog](https://blogs.nvidia.com/blog/rtx-ai-garage-open-models-google-gemma-4/) · [Google Cloud Blog](https://cloud.google.com/blog/products/ai-machine-learning/gemma-4-available-on-google-cloud) · [Auriga IT Guide](https://aurigait.com/blog/gemma-4-features-benchmarks-guide/)*\n"},{"id":"2026-05-30-01-claude-code-dynamic-workflows-ultracode-mode","title":"Claude Code Dynamic Workflows & Ultracode Mode","excerpt":"Anthropic launched dynamic workflows on May 28, enabling Claude to orchestrate up to 1,000 parallel subagents for large, complex tasks like codebase audits, migration jobs, and security reviews. The…","author":"Chris Harper","date":"05-30-2026","tags":["AI","Developer Tools","Security","LLM"],"readTime":1,"image":"https://github.com/cloudcodetree/cloudcodetree.github.io/releases/download/blog-images/2026-05-30-01-claude-code-dynamic-workflows-ultracode-mode.jpg","imageSource":"https://claude.com/blog/introducing-dynamic-workflows-in-claude-code","content":"Anthropic launched dynamic workflows on May 28, enabling Claude to orchestrate up to 1,000 parallel subagents for large, complex tasks like codebase audits, migration jobs, and security reviews. The new `ultracode` mode (activate with `/effort ultracode`) lets Claude auto-decide when to spin up workflow machinery — useful for big jobs where you want full-throttle parallelism. Key tip: always start with a scoped task first to gauge token consumption before running across a whole monorepo, and drop back to `/effort high` for routine work.\n\n---\n*Sources: [Anthropic Blog](https://claude.com/blog/introducing-dynamic-workflows-in-claude-code) · [TechCrunch](https://techcrunch.com/2026/05/28/anthropic-releases-opus-4-8-with-new-dynamic-workflow-tool/)*\n"},{"id":"2026-05-30-02-playwright-mcp-self-healing-tests-in-cursor","title":"Playwright + MCP Self-Healing Tests in Cursor","excerpt":"A viral workflow connecting Playwright to Cursor via MCP creates TDD on autopilot: the agent runs tests, fails, fixes code, and verifies — all without leaving your editor. This \"agentic TDD\" pattern…","author":"Chris Harper","date":"05-30-2026","tags":["AI","Developer Tools","LLM","Best Practices"],"readTime":1,"image":"https://github.com/cloudcodetree/cloudcodetree.github.io/releases/download/blog-images/2026-05-30-02-playwright-mcp-self-healing-tests-in-cursor.jpg","imageSource":"https://www.aitooldiscovery.com/guides/cursor-reddit","content":"A viral workflow connecting Playwright to Cursor via MCP creates TDD on autopilot: the agent runs tests, fails, fixes code, and verifies — all without leaving your editor. This \"agentic TDD\" pattern is gaining traction as the go-to workflow for test-driven development with AI tools. Community consensus: Cursor leads for everyday in-editor assistance while Claude Code leads for complex multi-file projects.\n\n---\n*Sources: [Cursor AI Reddit Roundup](https://www.aitooldiscovery.com/guides/cursor-reddit)*\n"},{"id":"2026-05-30-03-budget-tokens-strategically-in-multi-agent-runs","title":"Budget Tokens Strategically in Multi-Agent Runs","excerpt":"With dynamic workflows consuming substantially more tokens, a practical rule of thumb from developers: use a smaller/cheaper model for indexing and low-risk classification phases, reserve the…","author":"Chris Harper","date":"05-30-2026","tags":["AI","Developer Tools","LLM","Best Practices"],"readTime":1,"image":"https://github.com/cloudcodetree/cloudcodetree.github.io/releases/download/blog-images/_default.png","content":"With dynamic workflows consuming substantially more tokens, a practical rule of thumb from developers: use a smaller/cheaper model for indexing and low-risk classification phases, reserve the strongest model only for final verification steps. Check `/model` before launching expensive workflows, and scope to a single service or directory before expanding to the full codebase.\n\n---\n*Sources: [Claude Code Docs](https://code.claude.com/docs/en/workflows) · [agentpedia.codes guide](https://agentpedia.codes/blog/claude-opus-4-8-claude-code-workflows)*\n"},{"id":"2026-05-30-04-context-engineering-4-core-strategies","title":"Context Engineering: 4 Core Strategies","excerpt":"LangChain formalized context engineering with four strategies now widely adopted in production agent systems: write (persist context externally), select (retrieve what's relevant via RAG), compress…","author":"Chris Harper","date":"05-30-2026","tags":["AI","Developer Tools"],"readTime":1,"image":"https://github.com/cloudcodetree/cloudcodetree.github.io/releases/download/blog-images/_default.png","content":"LangChain formalized context engineering with four strategies now widely adopted in production agent systems: **write** (persist context externally), **select** (retrieve what's relevant via RAG), **compress** (summarize and compact), and **isolate** (separate contexts for different agents). Keeping base system prompts lean at 200–800 tokens while injecting context dynamically is the production sweet spot.\n\n---\n*Sources: [Multi-Agent Orchestration Guide](https://jobsbyculture.com/blog/ai-agent-orchestration-patterns-2026) · [Context Engineering Paper](https://arxiv.org/pdf/2603.09619)*\n"},{"id":"2026-05-30-05-9-best-practices-for-production-grade-agentic-ai","title":"9 Best Practices for Production-Grade Agentic AI","excerpt":"A recent arxiv paper distills production-grade agentic workflow patterns: tool-first design over MCP, pure-function tool invocation, single-tool and single-responsibility agents, externalized prompt…","author":"Chris Harper","date":"05-30-2026","tags":["AI","Best Practices"],"readTime":1,"image":"https://github.com/cloudcodetree/cloudcodetree.github.io/releases/download/blog-images/_default.png","content":"A recent arxiv paper distills production-grade agentic workflow patterns: tool-first design over MCP, pure-function tool invocation, single-tool and single-responsibility agents, externalized prompt management, clean separation between workflow logic and MCP servers, and containerized deployment. The KISS principle consistently outperforms over-engineered orchestration. Essential reading before building any production agent system.\n\n---\n*Sources: [ArXiv Paper](https://arxiv.org/pdf/2512.08769)*\n"},{"id":"2026-05-30-06-design-patterns-for-securing-llm-agents-against-","title":"Design Patterns for Securing LLM Agents Against Prompt Injection","excerpt":"A new arxiv paper (2506.08837) proposes principled design patterns for building agents with provable resistance to prompt injection — a critical threat when agents have tool access or handle…","author":"Chris Harper","date":"05-30-2026","tags":["AI","Best Practices","LLM"],"readTime":1,"image":"https://github.com/cloudcodetree/cloudcodetree.github.io/releases/download/blog-images/2026-05-30-06-design-patterns-for-securing-llm-agents-against-.jpg","imageSource":"https://arxiv.org/abs/2506.08837","content":"A new arxiv paper (2506.08837) proposes principled design patterns for building agents with provable resistance to prompt injection — a critical threat when agents have tool access or handle sensitive data. Key patterns: the **code-then-execute** pattern (LLM writes code that runs on untrusted data, rather than directly acting on it) and **context minimization**. The paper concludes no single pattern suffices — use combinations.\n\n---\n*Sources: [ArXiv Abstract](https://arxiv.org/abs/2506.08837)*\n"},{"id":"2026-05-30-07-6-production-proven-multi-agent-orchestration-pa","title":"6 Production-Proven Multi-Agent Orchestration Patterns","excerpt":"As multi-agent systems mature, six patterns have emerged as production-proven in 2026: sequential chains, parallel fan-out, supervisor/worker, hierarchical delegation, consensus/debate (multiple…","author":"Chris Harper","date":"05-30-2026","tags":["AI","Best Practices","Security"],"readTime":1,"image":"https://github.com/cloudcodetree/cloudcodetree.github.io/releases/download/blog-images/_default.png","content":"As multi-agent systems mature, six patterns have emerged as production-proven in 2026: sequential chains, parallel fan-out, supervisor/worker, hierarchical delegation, consensus/debate (multiple agents independently verify findings), and human-in-the-loop. The consensus/debate pattern is particularly valuable for agentic code reviews and security audits where independent verification catches more issues.\n\n---\n*Sources: [AI Agent Orchestration Patterns](https://jobsbyculture.com/blog/ai-agent-orchestration-patterns-2026) · [LangGraph / LangChain overview](https://www.intuz.com/blog/building-multi-ai-agent-workflows-with-langchain)*\n"}]}