{"page":16,"pageCount":19,"perPage":10,"total":190,"posts":[{"id":"2026-05-30-08-is-agentic-rag-worth-it-new-research","title":"Is Agentic RAG Worth It? New Research","excerpt":"A January 2026 arxiv paper experimentally compares RAG approaches and finds agentic RAG outperforms static RAG for multi-hop reasoning tasks but adds latency and cost. Key pitfalls: \"over-search\"…","author":"Chris Harper","date":"05-30-2026","tags":["AI","Best Practices"],"readTime":1,"image":"https://github.com/cloudcodetree/cloudcodetree.github.io/releases/download/blog-images/2026-05-30-08-is-agentic-rag-worth-it-new-research.jpg","imageSource":"https://arxiv.org/abs/2601.07711","content":"A January 2026 arxiv paper experimentally compares RAG approaches and finds agentic RAG outperforms static RAG for multi-hop reasoning tasks but adds latency and cost. Key pitfalls: \"over-search\" (redundant retrievals) and \"under-search\" (missing needed retrievals). Practical takeaway: only move to agentic RAG when your task genuinely requires iterative or conditional retrieval — not by default.\n\n---\n*Sources: [ArXiv: Is Agentic RAG Worth It?](https://arxiv.org/abs/2601.07711)*\n"},{"id":"2026-05-30-09-anthropic-releases-claude-opus-48-with-dynamic-w","title":"Anthropic Releases Claude Opus 4.8 with Dynamic Workflows","excerpt":"Anthropic shipped Claude Opus 4.8 on May 28, just 41 days after Opus 4.7, with improvements across coding, agentic tasks, reasoning, and practical knowledge work. Alongside the model, Anthropic…","author":"Chris Harper","date":"05-30-2026","tags":["AI","AI News","LLM","Best Practices"],"readTime":1,"image":"https://github.com/cloudcodetree/cloudcodetree.github.io/releases/download/blog-images/2026-05-30-09-anthropic-releases-claude-opus-48-with-dynamic-w.jpg","imageSource":"https://www.anthropic.com/news/claude-opus-4-8","content":"Anthropic shipped Claude Opus 4.8 on May 28, just 41 days after Opus 4.7, with improvements across coding, agentic tasks, reasoning, and practical knowledge work. Alongside the model, Anthropic launched dynamic workflows in Claude Code (up to 1,000 subagents), effort controls (including the new `ultracode` mode), Fast mode that's 2.5× faster and 3× cheaper than before, and expanded MCP/plugin/browser support. The Claude Platform also adds Managed Agents webhooks, multi-agent orchestration APIs, and Memory in public beta.\n\n---\n*Sources: [Anthropic Blog](https://www.anthropic.com/news/claude-opus-4-8) · [The New Stack](https://thenewstack.io/claude-opus-48-release/) · [MarkTechPost](https://www.marktechpost.com/2026/05/28/anthropic-ships-claude-opus-4-8-alongside-dynamic-workflows-and-cheaper-fast-mode-with-workflows-capped-at-1000-subagents/)*\n"},{"id":"2026-05-30-10-anthropic-closing-30b-round-at-900b-valuation-wo","title":"Anthropic Closing $30B Round at $900B+ Valuation — Would Surpass OpenAI","excerpt":"Anthropic is set to close a $30 billion funding round at a pre-money valuation above $900 billion, which would make it the most valuable private AI startup in the world, surpassing OpenAI's $852…","author":"Chris Harper","date":"05-30-2026","tags":["AI","AI News","LLM"],"readTime":1,"image":"https://github.com/cloudcodetree/cloudcodetree.github.io/releases/download/blog-images/2026-05-30-10-anthropic-closing-30b-round-at-900b-valuation-wo.jpg","imageSource":"https://www.bloomberg.com/news/articles/2026-05-12/anthropic-in-talks-to-raise-30-billion-at-900-billion-valuation","content":"Anthropic is set to close a $30 billion funding round at a pre-money valuation above $900 billion, which would make it the most valuable private AI startup in the world, surpassing OpenAI's $852 billion March valuation. Sequoia, Dragoneer, Altimeter, and Greenoaks are each contributing ~$2B. This follows the $30B Series G closed in February 2026 at a $380B valuation, with growth driven by Q2 2026 revenue projected at $10.9B — up 130% from Q1's $4.8B.\n\n---\n*Sources: [Bloomberg](https://www.bloomberg.com/news/articles/2026-05-12/anthropic-in-talks-to-raise-30-billion-at-900-billion-valuation) · [TechTimes](https://www.techtimes.com/articles/317066/20260523/anthropic-funding-round-top-30b-900b-valuation-would-surpass-openai-most-valuable-ai-startup.htm)*\n"},{"id":"2026-05-30-11-google-io-2026-gemini-35-flash-antigravity-agent","title":"Google I/O 2026: Gemini 3.5 Flash, Antigravity Agent Platform, WebMCP","excerpt":"Google's I/O keynote (May 19-21) centered on the \"agentic Gemini era.\" Key developer announcements: Gemini 3.5 Flash (rivals flagship models at Flash speeds, outperforms Gemini 3.1 Pro on…","author":"Chris Harper","date":"05-30-2026","tags":["AI","AI News"],"readTime":1,"image":"https://github.com/cloudcodetree/cloudcodetree.github.io/releases/download/blog-images/2026-05-30-11-google-io-2026-gemini-35-flash-antigravity-agent.jpg","imageSource":"https://blog.google/innovation-and-ai/technology/ai/google-io-2026-all-our-announcements/","content":"Google's I/O keynote (May 19-21) centered on the \"agentic Gemini era.\" Key developer announcements: Gemini 3.5 Flash (rivals flagship models at Flash speeds, outperforms Gemini 3.1 Pro on coding/agentic benchmarks), Gemini Omni (multimodal creation from any input), the upgraded Antigravity agent-first development platform with subagents/hooks/async task management, and WebMCP — a proposed open web standard for exposing browser-based tools to AI agents, with an experimental origin trial in Chrome 149.\n\n---\n*Sources: [Google Blog](https://blog.google/innovation-and-ai/technology/ai/google-io-2026-all-our-announcements/) · [Developers Keynote](https://developers.googleblog.com/all-the-news-from-the-google-io-2026-developer-keynote/) · [9to5Google](https://9to5google.com/2026/05/19/google-io-2026-news/)*\n"},{"id":"2026-05-30-12-openai-publishes-frontier-governance-framework","title":"OpenAI Publishes Frontier Governance Framework","excerpt":"OpenAI released its Frontier Governance Framework on May 29, aligning its safety practices with the EU AI Act's Code of Practice and California's Transparency in Frontier AI Act. The framework maps…","author":"Chris Harper","date":"05-30-2026","tags":["AI","AI News","LLM"],"readTime":1,"image":"https://github.com/cloudcodetree/cloudcodetree.github.io/releases/download/blog-images/_default.png","content":"OpenAI released its Frontier Governance Framework on May 29, aligning its safety practices with the EU AI Act's Code of Practice and California's Transparency in Frontier AI Act. The framework maps threat categories (cyber offense, CBRN risks, harmful manipulation, loss of control) to risk tiers with independent third-party evaluation requirements. Also on May 29: OpenAI launched Rosalind Biodefense (GPT-Rosalind access for vetted biodefense/public health partners) and a personal finance feature in ChatGPT that connects to users' financial accounts.\n\n---\n*Sources: [OpenAI Framework](https://openai.com/index/openai-frontier-governance-framework/) · [Techerati](https://www.techerati.com/news-hub/openais-frontier-signals-a-shift-in-enterprise-ai-governance/)*\n"},{"id":"2026-05-29-01-claude-code-dynamic-workflows-run-up-to-1000-par","title":"Claude Code Dynamic Workflows: Run Up to 1,000 Parallel Subagents","excerpt":"Anthropic's Opus 4.8 launch (May 28) shipped Dynamic Workflows as a research-preview layer inside Claude Code. You can now write orchestration scripts that spawn tens to hundreds of parallel…","author":"Chris Harper","date":"05-29-2026","tags":["AI","Developer Tools","LLM","Best Practices"],"readTime":1,"image":"https://github.com/cloudcodetree/cloudcodetree.github.io/releases/download/blog-images/2026-05-29-01-claude-code-dynamic-workflows-run-up-to-1000-par.jpg","imageSource":"https://techcrunch.com/2026/05/28/anthropic-releases-opus-4-8-with-new-dynamic-workflow-tool/","content":"Anthropic's Opus 4.8 launch (May 28) shipped Dynamic Workflows as a research-preview layer inside Claude Code. You can now write orchestration scripts that spawn tens to hundreds of parallel subagents (capped at 16 concurrent, 1,000 total per run). Crucially, workflows save checkpoints mid-run, so interrupted long-running jobs can resume rather than restart from zero. This changes the economics of large agentic tasks like codebase-wide refactors or multi-file test generation.\n\n---\n*Sources: [TechCrunch](https://techcrunch.com/2026/05/28/anthropic-releases-opus-4-8-with-new-dynamic-workflow-tool/) · [MarkTechPost](https://www.marktechpost.com/2026/05/28/anthropic-ships-claude-opus-4-8-alongside-dynamic-workflows-and-cheaper-fast-mode-with-workflows-capped-at-1000-subagents/)*\n"},{"id":"2026-05-29-02-claudemd-is-a-behavioral-contract-not-documentat","title":"CLAUDE.md Is a Behavioral Contract, Not Documentation","excerpt":"A well-researched guide published this month confirms the highest-ROI practice for Claude Code: treat CLAUDE.md as a strict behavioral contract. Keep it under 200 lines and apply a ruthless filter —…","author":"Chris Harper","date":"05-29-2026","tags":["AI","Developer Tools","LLM"],"readTime":1,"image":"https://github.com/cloudcodetree/cloudcodetree.github.io/releases/download/blog-images/_default.png","content":"A well-researched guide published this month confirms the highest-ROI practice for Claude Code: treat CLAUDE.md as a strict behavioral contract. Keep it under 200 lines and apply a ruthless filter — \"Would removing this line cause Claude to make mistakes?\" If not, cut it. Include project-specific business context, naming conventions, and domain rules that can't be inferred from code. Also: place a `~/.claude/CLAUDE.md` at your home directory for cross-project conventions, and run a session retro (\"What did you learn?\") at the end of each session to evolve it.\n\n---\n*Sources: [Medium (Bijit Ghosh)](https://medium.com/@bijit211987/the-complete-guide-to-claude-md-memory-rules-loading-and-cross-tool-compression-97cc12ed037b) · [DEV Community](https://dev.to/rams901/claudemd-rules-how-to-cut-ai-coding-mistakes-from-40-to-3-in-2026-2j7o)*\n"},{"id":"2026-05-29-03-claude-code-cursor-combo-beats-using-either-alon","title":"Claude Code + Cursor Combo Beats Using Either Alone","excerpt":"The emerging 2026 consensus from developers shipping fastest: use Claude Code for heavy lifting (scaffolding, refactors, infrastructure, large context reasoning with its 200K token window), then…","author":"Chris Harper","date":"05-29-2026","tags":["AI","Developer Tools","LLM"],"readTime":1,"image":"https://github.com/cloudcodetree/cloudcodetree.github.io/releases/download/blog-images/_default.png","content":"The emerging 2026 consensus from developers shipping fastest: use Claude Code for heavy lifting (scaffolding, refactors, infrastructure, large context reasoning with its 200K token window), then switch to Cursor for polish (fine-tuning UI, fixing edge cases, adjusting copy). Claude Code excels at whole-project reasoning; Cursor excels at precision edits within an already-structured codebase. Shift once the feature skeleton exists.\n\n---\n*Sources: [AI Builder Club](https://www.aibuilderclub.com/blog/claude-code-vs-cursor-2026) · [Excited Engineer Substack](https://theexcitedengineer.substack.com/p/your-best-ai-coding-guide-with-claude)*\n"},{"id":"2026-05-29-04-claude-code-v21152-powershell-security-fix-usefu","title":"Claude Code v2.1.152: PowerShell Security Fix + Useful /usage Breakdown","excerpt":"Shipped May 27. The critical update: a PowerShell permission bypass is patched (v2.1.149+) — built-in cd.., cd\\, cd~ functions could change working directory outside your workspace without triggering…","author":"Chris Harper","date":"05-29-2026","tags":["AI","Developer Tools","LLM"],"readTime":1,"image":"https://github.com/cloudcodetree/cloudcodetree.github.io/releases/download/blog-images/2026-05-29-04-claude-code-v21152-powershell-security-fix-usefu.jpg","imageSource":"https://claudefa.st/blog/guide/changelog","content":"Shipped May 27. The critical update: a PowerShell permission bypass is patched (v2.1.149+) — built-in `cd..`, `cd\\`, `cd~` functions could change working directory outside your workspace without triggering permission checks. Windows users must update immediately (`claude update` or `winget upgrade Anthropic.ClaudeCode`). The quality-of-life win: `/usage` now shows per-category breakdowns of what's consuming your limits (skills, subagents, plugins, MCP servers). Also: keyboard-navigable diffs (arrows, j/k, PgUp/PgDn) and GFM checkbox rendering.\n\n---\n*Sources: [Claude Code Changelog](https://claudefa.st/blog/guide/changelog) · [Build Fast with AI](https://www.buildfastwithai.com/blogs/ai-news-today-may-28-2026)*\n"},{"id":"2026-05-29-05-messages-api-now-supports-mid-task-instruction-u","title":"Messages API Now Supports Mid-Task Instruction Updates","excerpt":"Alongside Opus 4.8, Anthropic updated the Messages API to accept system entries inside the messages array. Developers can now update Claude's instructions mid-task without breaking the prompt cache…","author":"Chris Harper","date":"05-29-2026","tags":["AI","Developer Tools","LLM"],"readTime":1,"image":"https://github.com/cloudcodetree/cloudcodetree.github.io/releases/download/blog-images/2026-05-29-05-messages-api-now-supports-mid-task-instruction-u.jpg","imageSource":"https://www.digitalapplied.com/blog/claude-opus-4-8-release-dynamic-workflows-2026","content":"Alongside Opus 4.8, Anthropic updated the Messages API to accept `system` entries inside the `messages` array. Developers can now update Claude's instructions mid-task without breaking the prompt cache or routing the update through a user turn. This is particularly valuable for long agentic runs where task context or constraints evolve.\n\n---\n*Sources: [Digital Applied](https://www.digitalapplied.com/blog/claude-opus-4-8-release-dynamic-workflows-2026)*\n"}]}