{"page":17,"pageCount":19,"perPage":10,"total":190,"posts":[{"id":"2026-05-29-06-context-engineering-has-supplanted-prompt-engine","title":"Context Engineering Has Supplanted Prompt Engineering","excerpt":"The industry consensus in 2026: context architecture is the primary skill for working with LLMs, not prompt wording. The key asymmetry: a well-crafted prompt in a poorly engineered context still…","author":"Chris Harper","date":"05-29-2026","tags":["AI","Best Practices","LLM"],"readTime":1,"image":"https://github.com/cloudcodetree/cloudcodetree.github.io/releases/download/blog-images/2026-05-29-06-context-engineering-has-supplanted-prompt-engine.jpg","imageSource":"https://neo4j.com/blog/agentic-ai/context-engineering-vs-prompt-engineering/","content":"The industry consensus in 2026: context architecture is the primary skill for working with LLMs, not prompt wording. The key asymmetry: a well-crafted prompt in a poorly engineered context still fails, but a poorly crafted prompt in a well-engineered context often succeeds. 82% of IT and data leaders surveyed agree that prompt engineering alone is insufficient at scale. The practical framework: think about what information the model sees, not just how you phrase the instruction.\n\n---\n*Sources: [Neo4j Blog](https://neo4j.com/blog/agentic-ai/context-engineering-vs-prompt-engineering/) · [Firecrawl Blog](https://www.firecrawl.dev/blog/context-engineering) · [deepset Blog](https://www.deepset.ai/blog/context-engineering-the-next-frontier-beyond-prompt-engineering)*\n"},{"id":"2026-05-29-07-use-small-language-models-for-routine-agentic-ta","title":"Use Small Language Models for Routine Agentic Tasks (New ArXiv)","excerpt":"A fresh paper from NVIDIA Research (\"Small Language Models are the Future of Agentic AI\") argues that SLMs can match or surpass LLMs on tool use, function calling, and RAG at 10x–100x lower token…","author":"Chris Harper","date":"05-29-2026","tags":["AI","Best Practices","LLM"],"readTime":1,"image":"https://github.com/cloudcodetree/cloudcodetree.github.io/releases/download/blog-images/2026-05-29-07-use-small-language-models-for-routine-agentic-ta.jpg","imageSource":"https://arxiv.org/abs/2506.02153","content":"A fresh paper from NVIDIA Research (\"Small Language Models are the Future of Agentic AI\") argues that SLMs can match or surpass LLMs on tool use, function calling, and RAG at 10x–100x lower token cost with better latency. The practical pattern: heterogeneous model routing — SLMs for narrow, predictable sub-tasks; LLMs for complex reasoning steps. Key techniques to close the gap: guided decoding, strict JSON Schema outputs, schema-first prompting, and lightweight LoRA/QLoRA fine-tuning.\n\n---\n*Sources: [ArXiv](https://arxiv.org/abs/2506.02153) · [NVIDIA Research](https://research.nvidia.com/labs/lpr/slm-agents/)*\n"},{"id":"2026-05-29-08-rag-optimization-keep-key-information-at-the-edg","title":"RAG Optimization: Keep Key Information at the Edges of Context","excerpt":"Stanford's \"lost in the middle\" research (now mainstream practice) confirms that LLM attention degrades for information placed in the middle of long contexts. For RAG pipelines: place the most…","author":"Chris Harper","date":"05-29-2026","tags":["AI","Best Practices","LLM"],"readTime":1,"image":"https://github.com/cloudcodetree/cloudcodetree.github.io/releases/download/blog-images/2026-05-29-08-rag-optimization-keep-key-information-at-the-edg.jpg","imageSource":"https://www.stackai.com/blog/prompt-engineering-for-rag-pipelines-the-complete-guide-to-prompt-engineering-for-retrieval-augmented-generation","content":"Stanford's \"lost in the middle\" research (now mainstream practice) confirms that LLM attention degrades for information placed in the middle of long contexts. For RAG pipelines: place the most critical retrieved chunks at the very beginning or end of the prompt. Also: resist the urge to dump everything into context — a 2025 Chroma study found every model tested performed worse as input volume grew. Optimal standalone prompt length is 150–300 words; beyond that, compress with summarization before retrieval.\n\n---\n*Sources: [Stack AI Blog](https://www.stackai.com/blog/prompt-engineering-for-rag-pipelines-the-complete-guide-to-prompt-engineering-for-retrieval-augmented-generation) · [Regal.ai](https://www.regal.ai/blog/context-engineering-for-ai-agents)*\n"},{"id":"2026-05-29-09-google-antigravity-managed-agents-provision-remo","title":"Google Antigravity Managed Agents: Provision Remote Sandboxes via API","excerpt":"Announced at Google I/O 2026, Managed Agents (powered by Gemini 3.5 Flash) let a single API call provision a remote Linux environment where an agent can plan, call tools, execute code, manage files,…","author":"Chris Harper","date":"05-29-2026","tags":["AI","Best Practices"],"readTime":1,"image":"https://github.com/cloudcodetree/cloudcodetree.github.io/releases/download/blog-images/2026-05-29-09-google-antigravity-managed-agents-provision-remo.jpg","imageSource":"https://cloud.google.com/blog/products/ai-machine-learning/innovations-from-google-io-26-on-google-cloud","content":"Announced at Google I/O 2026, Managed Agents (powered by Gemini 3.5 Flash) let a single API call provision a remote Linux environment where an agent can plan, call tools, execute code, manage files, and browse the web — all in an isolated sandbox. Eliminates the infrastructure overhead of self-hosting agent execution environments. Available via Google AI Studio and Vertex AI.\n\n---\n*Sources: [Google Cloud Blog](https://cloud.google.com/blog/products/ai-machine-learning/innovations-from-google-io-26-on-google-cloud) · [9to5Google](https://9to5google.com/2026/05/19/google-io-2026-news/)*\n"},{"id":"2026-05-29-10-facebook-silvertorch-index-as-model-retrieval-pa","title":"Facebook SilverTorch: \"Index as Model\" Retrieval Paradigm","excerpt":"Meta Engineering published SilverTorch (May 26), a new retrieval architecture for recommendation systems that treats the index itself as a learned model rather than a static lookup structure. While…","author":"Chris Harper","date":"05-29-2026","tags":["AI","Best Practices","LLM"],"readTime":1,"image":"https://github.com/cloudcodetree/cloudcodetree.github.io/releases/download/blog-images/2026-05-29-10-facebook-silvertorch-index-as-model-retrieval-pa.jpg","imageSource":"https://engineering.fb.com/2026/05/26/ml-applications/silvertorch-index-as-model-new-retrieval-paradigm-recommendation-systems/","content":"Meta Engineering published SilverTorch (May 26), a new retrieval architecture for recommendation systems that treats the index itself as a learned model rather than a static lookup structure. While aimed at recommendation systems, the underlying pattern — embedding retrieval intelligence into the index rather than the query layer — has direct implications for RAG system design. Worth reading for anyone architecting high-scale retrieval pipelines.\n\n---\n*Sources: [Meta Engineering Blog](https://engineering.fb.com/2026/05/26/ml-applications/silvertorch-index-as-model-new-retrieval-paradigm-recommendation-systems/)*\n"},{"id":"2026-05-29-11-anthropic-releases-claude-opus-48-with-dynamic-w","title":"Anthropic Releases Claude Opus 4.8 with Dynamic Workflows","excerpt":"Released May 28, Opus 4.8 is an upgrade to Opus 4.7 at the same price ($5/$25 per million tokens in/out). Benchmarks beat its predecessor, GPT-5.5, and Gemini 3.1 Pro across most measures. Key…","author":"Chris Harper","date":"05-29-2026","tags":["AI","AI News","AWS","Security"],"readTime":1,"image":"https://github.com/cloudcodetree/cloudcodetree.github.io/releases/download/blog-images/2026-05-29-11-anthropic-releases-claude-opus-48-with-dynamic-w.jpg","imageSource":"https://www.anthropic.com/news/claude-opus-4-8","content":"Released May 28, Opus 4.8 is an upgrade to Opus 4.7 at the same price ($5/$25 per million tokens in/out). Benchmarks beat its predecessor, GPT-5.5, and Gemini 3.1 Pro across most measures. Key additions for developers: Dynamic Workflows in Claude Code (parallel subagents, checkpointing), Effort Controls (adjust reasoning depth per-request), and the Messages API mid-task instruction update capability. Separately, Anthropic also released Claude Security (public beta for Enterprise), a codebase vulnerability scanning tool that reasons about cross-component interactions — not just static pattern matching. Now available on AWS Bedrock and OpenRouter.\n\n---\n*Sources: [Anthropic](https://www.anthropic.com/news/claude-opus-4-8) · [The New Stack](https://thenewstack.io/claude-opus-48-release/) · [AWS ML Blog](https://aws.amazon.com/blogs/machine-learning/claude-opus-4-8-is-now-available-on-aws/)*\n"},{"id":"2026-05-29-12-google-io-2026-gemini-35-flash-is-generally-avai","title":"Google I/O 2026: Gemini 3.5 Flash Is Generally Available","excerpt":"Launched May 19–20, Gemini 3.5 Flash is the headline model from Google I/O: frontier-class intelligence at Flash-tier speed (4x faster output tokens/sec than comparable models), outperforming Gemini…","author":"Chris Harper","date":"05-29-2026","tags":["AI","AI News","LLM"],"readTime":1,"image":"https://github.com/cloudcodetree/cloudcodetree.github.io/releases/download/blog-images/2026-05-29-12-google-io-2026-gemini-35-flash-is-generally-avai.jpg","imageSource":"https://blog.google/innovation-and-ai/technology/ai/io-2026-keynote-moment-videos/","content":"Launched May 19–20, Gemini 3.5 Flash is the headline model from Google I/O: frontier-class intelligence at Flash-tier speed (4x faster output tokens/sec than comparable models), outperforming Gemini 3.1 Pro on coding, agentic, and multimodal benchmarks. Available now via the Gemini API in Google AI Studio, Vertex AI, and Android Studio. Gemini 3.5 Pro is in testing and expected next month. Gemini Omni (video-to-anything multimodal generation) also previewed.\n\n---\n*Sources: [Google Blog](https://blog.google/innovation-and-ai/technology/ai/io-2026-keynote-moment-videos/) · [9to5Google](https://9to5google.com/2026/05/19/google-io-2026-news/) · [HotHardware](https://hothardware.com/news/google-io-2026-gemini-35-flash-ai-search-and-more)*\n"},{"id":"2026-05-29-13-all-three-big-four-firms-now-standardized-on-cla","title":"All Three Big Four Firms Now Standardized on Claude","excerpt":"Deloitte (470K employees), PwC, and KPMG (276K employees in 138 countries) have all committed to enterprise-wide Claude deployment by September 2026 — roughly 1.1 million professionals total. The…","author":"Chris Harper","date":"05-29-2026","tags":["AI","AI News","LLM","Best Practices"],"readTime":1,"image":"https://github.com/cloudcodetree/cloudcodetree.github.io/releases/download/blog-images/2026-05-29-13-all-three-big-four-firms-now-standardized-on-cla.jpg","imageSource":"https://kpmg.com/xx/en/media/press-releases/2026/05/kpmg-and-anthropic-sign-global-alliance-and-launch-digital-gateway-powered-by-claude.html","content":"Deloitte (470K employees), PwC, and KPMG (276K employees in 138 countries) have all committed to enterprise-wide Claude deployment by September 2026 — roughly 1.1 million professionals total. The KPMG deployment (announced May 19) integrates Claude Cowork and Managed Agents directly into KPMG's client delivery platform, Digital Gateway on Azure. For developers: if your company uses any of these firms, Claude is likely already entering your workflows through the advisory relationship.\n\n---\n*Sources: [KPMG Press Release](https://kpmg.com/xx/en/media/press-releases/2026/05/kpmg-and-anthropic-sign-global-alliance-and-launch-digital-gateway-powered-by-claude.html) · [Build Fast with AI](https://www.buildfastwithai.com/blogs/ai-news-today-may-28-2026)*\n"},{"id":"2026-05-29-14-openai-launches-4b-enterprise-consulting-subsidi","title":"OpenAI Launches $4B Enterprise Consulting Subsidiary (DeployCo)","excerpt":"May 11: OpenAI launched the OpenAI Deployment Company with $4B+ from TPG, Goldman Sachs, McKinsey, Bain Capital, and Capgemini as co-investors. The model copies Palantir's playbook: Forward Deployed…","author":"Chris Harper","date":"05-29-2026","tags":["AI","AI News","LLM","Best Practices"],"readTime":1,"image":"https://github.com/cloudcodetree/cloudcodetree.github.io/releases/download/blog-images/2026-05-29-14-openai-launches-4b-enterprise-consulting-subsidi.jpg","imageSource":"https://techcrunch.com/2026/04/30/after-dissing-anthropic-for-limiting-mythos-openai-restricts-access-to-cyber-too/","content":"May 11: OpenAI launched the OpenAI Deployment Company with $4B+ from TPG, Goldman Sachs, McKinsey, Bain Capital, and Capgemini as co-investors. The model copies Palantir's playbook: Forward Deployed Engineers embedded inside client organizations to build AI workflows in production, not pilots. OpenAI simultaneously acquired Tomoro (150 engineers) for initial capacity. This is a direct response to losing enterprise API share (reportedly ~50% in 2023 to ~25% mid-2025) to Anthropic and Google.\n\n---\n*Sources: [TechCrunch](https://techcrunch.com/2026/04/30/after-dissing-anthropic-for-limiting-mythos-openai-restricts-access-to-cyber-too/) · [PYMNTS](https://www.pymnts.com/news/artificial-intelligence/2026/openai-launches-4-billion-dollar-company-accelerate-enterprise-ai-adoption/)*\n"},{"id":"2026-05-29-15-canada-rules-chatgpt-training-data-violated-priv","title":"Canada Rules ChatGPT Training Data Violated Privacy Law","excerpt":"Canada's Privacy Commissioner plus provincial counterparts in Quebec, BC, and Alberta found (May 6) that OpenAI violated Canadian privacy law in developing ChatGPT: overcollection of personal data…","author":"Chris Harper","date":"05-29-2026","tags":["AI","AI News","LLM"],"readTime":1,"image":"https://github.com/cloudcodetree/cloudcodetree.github.io/releases/download/blog-images/_default.png","content":"Canada's Privacy Commissioner plus provincial counterparts in Quebec, BC, and Alberta found (May 6) that OpenAI violated Canadian privacy law in developing ChatGPT: overcollection of personal data without proportionality assessment, no valid consent for scraped data, and inadequate safeguards for children's data. Federal complaint conditionally resolved, but provincial enforcement continues. First national ruling of this kind — the UK ICO, German DPA, and French CNIL have similar investigations underway. Enterprises subject to PIPEDA should seek legal review before ChatGPT deployment.\n\n---\n*Sources: [Globe and Mail](https://www.theglobeandmail.com/business/article-canadian-ai-firm-cohere-germanys-aleph-alpha-announce-merger/) · [Build Fast with AI](https://www.buildfastwithai.com/blogs/ai-news-today-may-28-2026)*\n"}]}