{"page":18,"pageCount":19,"perPage":10,"total":190,"posts":[{"id":"2026-05-29-16-chatgpt-voice-mode-runs-on-a-13-month-old-model","title":"ChatGPT Voice Mode Runs on a 13-Month-Old Model","excerpt":"Developer Simon Willison (citing Andrej Karpathy) revealed that ChatGPT's voice mode runs on a GPT-4o-era model with an April 2024 knowledge cutoff — while the text interface uses GPT-5.5. That's a…","author":"Chris Harper","date":"05-29-2026","tags":["AI","AI News","LLM"],"readTime":1,"image":"https://github.com/cloudcodetree/cloudcodetree.github.io/releases/download/blog-images/_default.png","content":"Developer Simon Willison (citing Andrej Karpathy) revealed that ChatGPT's voice mode runs on a GPT-4o-era model with an April 2024 knowledge cutoff — while the text interface uses GPT-5.5. That's a 13+ month capability gap for ChatGPT Pro subscribers paying $200/month, not prominently disclosed. OpenAI hasn't officially responded. The constraint is latency: frontier models can't yet run real-time voice cheaply. The competitive comparison: Google's Gemini Live voice mode uses Gemini 3.5 Flash (its latest model).\n\n---\n*Sources: [Simon Willison's Blog](https://simonwillison.net/) · [Build Fast with AI](https://www.buildfastwithai.com/blogs/ai-news-today-may-28-2026)*\n"},{"id":"2026-05-28-01-use-ide-terminal-agent-as-a-two-tool-stack","title":"Use IDE + Terminal Agent as a two-tool stack","excerpt":"The winning formula in 2026 is pairing a fast IDE assistant (Cursor for inline suggestions and rapid autocomplete) with a terminal agent (Claude Code for complex, multi-file refactoring and…","author":"Chris Harper","date":"05-28-2026","tags":["AI","Developer Tools","LLM"],"readTime":1,"image":"https://github.com/cloudcodetree/cloudcodetree.github.io/releases/download/blog-images/_default.png","content":"The winning formula in 2026 is pairing a fast IDE assistant (Cursor for inline suggestions and rapid autocomplete) with a terminal agent (Claude Code for complex, multi-file refactoring and architecture-level tasks). 70% of developers surveyed by The Pragmatic Engineer now use 2–4 AI coding tools simultaneously rather than picking just one.\n\n---\n*Source: SitePoint / Fungies.io*\n"},{"id":"2026-05-28-02-claude-codes-new-agent-view-changes-how-you-mana","title":"Claude Code's new Agent View changes how you manage parallel sessions","excerpt":"A major update (Week 20, May 11–15) introduced Agent View, a single screen showing all active Claude Code sessions — what's running, what's waiting on input, and what's done. You can launch agents to…","author":"Chris Harper","date":"05-28-2026","tags":["AI","Developer Tools","LLM"],"readTime":1,"image":"https://github.com/cloudcodetree/cloudcodetree.github.io/releases/download/blog-images/_default.png","content":"A major update (Week 20, May 11–15) introduced Agent View, a single screen showing all active Claude Code sessions — what's running, what's waiting on input, and what's done. You can launch agents to the background and check back only when needed. Fast mode now defaults to Opus 4.7, and rate limits were doubled.\n\n---\n*Source: Releasebot / Medium*\n"},{"id":"2026-05-28-03-use-goal-to-keep-claude-working-across-multi-tur","title":"Use `/goal` to keep Claude working across multi-turn tasks","excerpt":"Claude Code's new /goal command lets you define a completion condition and Claude will keep working across turns until it's met, reducing the need to manually re-prompt. The Rewind menu also now lets…","author":"Chris Harper","date":"05-28-2026","tags":["AI","Developer Tools","LLM"],"readTime":1,"image":"https://github.com/cloudcodetree/cloudcodetree.github.io/releases/download/blog-images/_default.png","content":"Claude Code's new `/goal` command lets you define a completion condition and Claude will keep working across turns until it's met, reducing the need to manually re-prompt. The `Rewind` menu also now lets you compress earlier context with \"Summarize up to here\" to manage long sessions.\n\n---\n*Source: Claude Code Docs*\n"},{"id":"2026-05-28-04-ai-coding-agents-work-best-on-clean-modular-repo","title":"AI coding agents work best on clean, modular repos","excerpt":"Agents are strongest when work is clear, contained, and testable. Messy codebases create messy agents. Invest in good engineering hygiene first — the AI amplifies what's already there, for better or…","author":"Chris Harper","date":"05-28-2026","tags":["AI","Developer Tools"],"readTime":1,"image":"https://github.com/cloudcodetree/cloudcodetree.github.io/releases/download/blog-images/_default.png","content":"Agents are strongest when work is clear, contained, and testable. Messy codebases create messy agents. Invest in good engineering hygiene first — the AI amplifies what's already there, for better or worse.\n\n---\n*Source: DEV Community / NxCode*\n"},{"id":"2026-05-28-05-build-modularly-so-you-can-deprecate-agent-harne","title":"Build modularly so you can deprecate agent harnesses","excerpt":"The complex orchestration logic you write today might be made redundant by model improvements in months. Design agent workflows modularly so you can rip out old harnesses when native model…","author":"Chris Harper","date":"05-28-2026","tags":["AI","Developer Tools","LLM","Best Practices"],"readTime":1,"image":"https://github.com/cloudcodetree/cloudcodetree.github.io/releases/download/blog-images/_default.png","content":"The complex orchestration logic you write today might be made redundant by model improvements in months. Design agent workflows modularly so you can rip out old harnesses when native model capabilities catch up, without a full rewrite.\n\n---\n*Source: MachineLearningMastery*\n"},{"id":"2026-05-28-06-run-1015-claude-sessions-in-parallel-with-git-wo","title":"Run 10–15 Claude sessions in parallel with Git worktrees","excerpt":"Assign each Claude Code session its own git worktree to prevent branch collisions. Developers running this setup report it as their single biggest throughput multiplier — great for tackling…","author":"Chris Harper","date":"05-28-2026","tags":["AI","Developer Tools","LLM"],"readTime":1,"image":"https://github.com/cloudcodetree/cloudcodetree.github.io/releases/download/blog-images/_default.png","content":"Assign each Claude Code session its own git worktree to prevent branch collisions. Developers running this setup report it as their single biggest throughput multiplier — great for tackling independent features, tests, and refactors concurrently.\n\n---\n*Source: f22labs.com*\n"},{"id":"2026-05-28-07-context-engineering-replaces-prompt-engineering-","title":"Context Engineering\" replaces \"Prompt Engineering\" as the dominant discipline","excerpt":"Prompts are now treated as production code: versioned, tested, and systematically optimized. Tools like DSPy let you define what a system should do via declarative \"Signatures\" rather than how to…","author":"Chris Harper","date":"05-28-2026","tags":["AI","Developer Tools"],"readTime":1,"image":"https://github.com/cloudcodetree/cloudcodetree.github.io/releases/download/blog-images/_default.png","content":"Prompts are now treated as production code: versioned, tested, and systematically optimized. Tools like **DSPy** let you define *what* a system should do via declarative \"Signatures\" rather than *how* to prompt it; **PromptFoo** provides open-source test harnesses to benchmark prompts across models. Research-backed techniques yield 20–60% quality gains vs. ad-hoc prompting.\n\n---\n*Source: lushbinary.com / k2view.com*\n"},{"id":"2026-05-28-08-agentic-prompts-need-four-core-components-system","title":"Agentic prompts need four core components: system prompt, tools, examples, and context state","excerpt":"Unlike one-shot prompts, agentic prompts are distributed across time and steps. An ambiguous instruction at step one doesn't fail immediately — it drifts, and by step seven, the agent is doing…","author":"Chris Harper","date":"05-28-2026","tags":["AI","Best Practices"],"readTime":1,"image":"https://github.com/cloudcodetree/cloudcodetree.github.io/releases/download/blog-images/_default.png","content":"Unlike one-shot prompts, agentic prompts are distributed across time and steps. An ambiguous instruction at step one doesn't fail immediately — it drifts, and by step seven, the agent is doing something you never intended. Structure your agent prompts around all four components to prevent drift.\n\n---\n*Source: MachineLearningMastery*\n"},{"id":"2026-05-28-09-five-agent-design-patterns-every-developer-shoul","title":"Five agent design patterns every developer should know in 2026","excerpt":"ReAct, Plan-and-Execute, Multi-Agent Collaboration, Reflection, and Tool Use have emerged as the canonical patterns for building reliable agents. Reflection (the agent critiques its own output before…","author":"Chris Harper","date":"05-28-2026","tags":["AI","Best Practices","React"],"readTime":1,"image":"https://github.com/cloudcodetree/cloudcodetree.github.io/releases/download/blog-images/_default.png","content":"ReAct, Plan-and-Execute, Multi-Agent Collaboration, Reflection, and Tool Use have emerged as the canonical patterns for building reliable agents. Reflection (the agent critiques its own output before finalizing) and Orchestrator/Sub-agent architectures (specialized sub-agents coordinated by a manager agent) are seeing the most production adoption.\n\n---\n*Source: n1n.ai / Medium*\n"}]}