{"page":19,"pageCount":19,"perPage":10,"total":190,"posts":[{"id":"2026-05-28-10-agentic-rag-retrieval-as-a-repeated-tool-call-no","title":"Agentic RAG: retrieval as a repeated tool call, not a preprocessing step","excerpt":"Modern RAG best practice treats retrieval as something the agent can invoke multiple times during a task rather than once before generation. Combining dense vector search with sparse BM25 retrieval…","author":"Chris Harper","date":"05-28-2026","tags":["AI","Best Practices"],"readTime":1,"image":"https://github.com/cloudcodetree/cloudcodetree.github.io/releases/download/blog-images/_default.png","content":"Modern RAG best practice treats retrieval as something the agent can invoke multiple times during a task rather than once before generation. Combining dense vector search with sparse BM25 retrieval and re-ranking improves precision significantly. Warning: multi-step reflection loops consume 3–10x more tokens than classic RAG — only worth it for complex reasoning workloads.\n\n---\n*Source: DigitalApplied*\n"},{"id":"2026-05-28-11-fix-agent-failure-modes-systematically-not-throu","title":"Fix agent failure modes systematically, not through prompt tweaks","excerpt":"When an agent makes a mistake, change the surrounding system (rules, tools, constraints, feedback loops) so that mistake structurally cannot recur — not just the prompt. Prompt patching compounds;…","author":"Chris Harper","date":"05-28-2026","tags":["AI","Best Practices"],"readTime":1,"image":"https://github.com/cloudcodetree/cloudcodetree.github.io/releases/download/blog-images/_default.png","content":"When an agent makes a mistake, change the surrounding system (rules, tools, constraints, feedback loops) so that mistake structurally cannot recur — not just the prompt. Prompt patching compounds; system-level fixes scale.\n\n---\n*Source: Sourcegraph / NxCode*\n"},{"id":"2026-05-28-12-design-tool-interfaces-with-agents-in-mind","title":"Design tool interfaces with agents in mind","excerpt":"Agents perform better when tools expose clear filters, structured results, and easily parseable formats. If your team is building internal tools that agents will call, treat agent-readability as a…","author":"Chris Harper","date":"05-28-2026","tags":["AI","Best Practices"],"readTime":1,"image":"https://github.com/cloudcodetree/cloudcodetree.github.io/releases/download/blog-images/_default.png","content":"Agents perform better when tools expose clear filters, structured results, and easily parseable formats. If your team is building internal tools that agents will call, treat agent-readability as a first-class design requirement alongside human usability.\n\n---\n*Source: Redis / Monday.com*\n"},{"id":"2026-05-28-13-kpmg-deploys-claude-to-276000-employees-across-1","title":"KPMG deploys Claude to 276,000 employees across 138 countries","excerpt":"One of the largest enterprise AI rollouts to date, KPMG is using Claude at scale across its global workforce for advisory and consulting work. Signals accelerating mainstream enterprise adoption of…","author":"Chris Harper","date":"05-28-2026","tags":["AI","AI News","LLM"],"readTime":1,"image":"https://github.com/cloudcodetree/cloudcodetree.github.io/releases/download/blog-images/_default.png","content":"One of the largest enterprise AI rollouts to date, KPMG is using Claude at scale across its global workforce for advisory and consulting work. Signals accelerating mainstream enterprise adoption of frontier AI models.\n\n---\n*Source: BuildFastWithAI*\n"},{"id":"2026-05-28-14-openai-launches-4b-consulting-subsidiary-deployc","title":"OpenAI launches $4B consulting subsidiary \"DeployCo","excerpt":"OpenAI officially launched a majority-owned standalone consulting entity backed by $4B from 19 investment firms and consultancies. They simultaneously acquired applied AI firm Tomoro (150…","author":"Chris Harper","date":"05-28-2026","tags":["AI","AI News","LLM"],"readTime":1,"image":"https://github.com/cloudcodetree/cloudcodetree.github.io/releases/download/blog-images/_default.png","content":"OpenAI officially launched a majority-owned standalone consulting entity backed by $4B from 19 investment firms and consultancies. They simultaneously acquired applied AI firm Tomoro (150 forward-deployed engineers). A significant strategic shift as OpenAI moves from model provider to full implementation partner.\n\n---\n*Source: BuildFastWithAI*\n"},{"id":"2026-05-28-15-cohere-acquires-aleph-alpha-creating-a-20b-trans","title":"Cohere acquires Aleph Alpha, creating a $20B transatlantic sovereign AI challenger","excerpt":"The deal merges two of the most prominent \"non-US\" AI companies into a single entity, positioning them as the go-to option for European and Canadian sovereign AI deployments. Major implications for…","author":"Chris Harper","date":"05-28-2026","tags":["AI","AI News","Developer Tools"],"readTime":1,"image":"https://github.com/cloudcodetree/cloudcodetree.github.io/releases/download/blog-images/_default.png","content":"The deal merges two of the most prominent \"non-US\" AI companies into a single entity, positioning them as the go-to option for European and Canadian sovereign AI deployments. Major implications for regulated industries and government contracts globally.\n\n---\n*Source: AI Tools Recap*\n"},{"id":"2026-05-28-16-nvidia-releases-nemotron-3-nano-omni-open-omni-m","title":"NVIDIA releases Nemotron 3 Nano Omni — open omni-modal model at 30B parameters","excerpt":"NVIDIA's new model unifies vision, audio, and language in a single 30B-parameter mixture-of-experts architecture. Open weights and omni-modal capability in a relatively compact model could be…","author":"Chris Harper","date":"05-28-2026","tags":["AI","AI News","LLM"],"readTime":1,"image":"https://github.com/cloudcodetree/cloudcodetree.github.io/releases/download/blog-images/_default.png","content":"NVIDIA's new model unifies vision, audio, and language in a single 30B-parameter mixture-of-experts architecture. Open weights and omni-modal capability in a relatively compact model could be significant for edge and on-device use cases.\n\n---\n*Source: LLM Stats*\n"},{"id":"2026-05-28-17-google-ships-gemini-35-and-gemini-35-flash","title":"Google ships Gemini 3.5 and Gemini 3.5 Flash","excerpt":"Major Gemini model updates announced at Google I/O (May 19) are rolling out, improving performance, speed, and accessibility across Google AI services. Flash variant targets cost-sensitive,…","author":"Chris Harper","date":"05-28-2026","tags":["AI","AI News","LLM"],"readTime":1,"image":"https://github.com/cloudcodetree/cloudcodetree.github.io/releases/download/blog-images/_default.png","content":"Major Gemini model updates announced at Google I/O (May 19) are rolling out, improving performance, speed, and accessibility across Google AI services. Flash variant targets cost-sensitive, high-throughput API workloads.\n\n---\n*Source: TechTimes*\n"},{"id":"2026-05-28-18-anthropic-launches-project-glasswing-ai-powered-","title":"Anthropic launches Project Glasswing — AI-powered zero-day vulnerability research","excerpt":"Anthropic gave select organizations access to Claude Mythos Preview, a specialized security model that reportedly identified thousands of zero-day vulnerabilities across major OSes and browsers in…","author":"Chris Harper","date":"05-28-2026","tags":["AI","AI News","Security","LLM"],"readTime":1,"image":"https://github.com/cloudcodetree/cloudcodetree.github.io/releases/download/blog-images/_default.png","content":"Anthropic gave select organizations access to *Claude Mythos Preview*, a specialized security model that reportedly identified thousands of zero-day vulnerabilities across major OSes and browsers in weeks of internal testing. A significant signal of frontier AI moving into offensive security research.\n\n---\n*Source: crescendo.ai*\n"},{"id":"2026-05-28-19-amd-venice-enters-production-on-tsmc-2nm","title":"AMD Venice enters production on TSMC 2nm","excerpt":"AMD kicked off manufacturing of its 6th-gen EPYC \"Venice\" server CPUs on TSMC's 2nm node — the first high-performance computing product at this process generation. Positions AMD as a credible…","author":"Chris Harper","date":"05-28-2026","tags":["AI","AI News","Developer Tools"],"readTime":1,"image":"https://github.com/cloudcodetree/cloudcodetree.github.io/releases/download/blog-images/_default.png","content":"AMD kicked off manufacturing of its 6th-gen EPYC \"Venice\" server CPUs on TSMC's 2nm node — the first high-performance computing product at this process generation. Positions AMD as a credible challenger to NVIDIA's AI compute dominance as the node war intensifies.\n\n---\n*Source: crescendo.ai*\n"}]}