{"page":3,"pageCount":19,"perPage":10,"total":190,"posts":[{"id":"2026-06-11-02-claude-code-fast-mode-economics","title":"Claude Code /fast economics: enable it on turn one or pay a full-context toll","excerpt":"Fast mode on Opus 4.8 is 2x price for up to 2.5x speed — but toggling /fast mid-session re-bills your whole context uncached, and every fast token draws from usage credits, not your plan.","author":"Chris Harper","date":"06-11-2026","publishedAt":"2026-06-11T11:30:00.000Z","tags":["AI","Developer Tools","Best Practices"],"readTime":2,"image":"https://github.com/cloudcodetree/cloudcodetree.github.io/releases/download/blog-images/2026-06-11-02-claude-code-fast-mode-economics.jpg","imageSource":"https://www.developersdigest.tech/blog/claude-code-fast-mode-worth-it","content":"A same-day-verified breakdown of Claude Code's **fast mode** is worth internalizing before you build a `/fast` habit. The headline trade is simple — same Opus model, **up to 2.5x faster at 2x the token price** ($10/$50 per MTok on Opus 4.8 vs $5/$25 standard) — but three billing wrinkles change how you should use it.\n\n**The first-enable toll.** Fast mode adds a request header that's part of the prompt cache key. The first `/fast` in a conversation invalidates your cache and re-reads the *entire* history as uncached input at fast rates. 400K tokens deep, that toggle costs ~$4 before it does anything; on turn one, it's a cent. Enable at session start or wait for the next session. (The charge is once per conversation on v2.1.86+ — later toggles keep the cache.)\n\n**Separate money.** On Pro/Max/Team plans, fast mode bills **usage credits from the very first token** and never touches included plan usage. Surprise line items on your credits are likely this. It also has its own rate-limit pool; hitting it degrades gracefully to standard speed.\n\n**Where it's wrong.** Skip it for agents, overnight runs, and CI — nobody's watching, output tokens dominate, and fast mode isn't even available in the Batch API (the actual 50%-off lever). And if you're still pointed at Opus 4.7/4.6, fast mode there is a **6x premium** ($30/$150) — switch models before switching speeds. Not available on Bedrock, Vertex, or Azure Foundry; CLI only, not the VS Code extension.\n\nRule of thumb: `/fast` for interactive debugging from turn one; standard mode for everything autonomous.\n\n**Sources:** [Developers Digest](https://www.developersdigest.tech/blog/claude-code-fast-mode-worth-it), [Claude Code fast mode docs](https://code.claude.com/docs/en/fast-mode), [Claude API pricing](https://platform.claude.com/docs/en/about-claude/pricing)"},{"id":"2026-06-11-03-one-cent-prompt-injection-bank-memo","title":"The €0.02 prompt injection: a bank transfer memo compromised a production AI assistant","excerpt":"Researchers compromised Bunq's banking assistant with one €0.02 SEPA transfer: an injected memo made the bank's own AI render a phishing prompt. The defense checklist applies to any agent you ship.","author":"Chris Harper","date":"06-11-2026","publishedAt":"2026-06-11T11:00:00.000Z","tags":["AI","Security","Best Practices"],"readTime":2,"image":"https://github.com/cloudcodetree/cloudcodetree.github.io/releases/download/blog-images/2026-06-11-03-one-cent-prompt-injection-bank-memo.jpg","imageSource":"https://blue41.com/blog/how-we-helped-bunq-secure-their-financial-ai-assistant/","content":"Security firm Blue41 published a case study — 145 points and 120 comments on Hacker News — showing how they compromised the AI assistant at **Bunq** (Europe's second-largest digital bank, 20M+ customers) with a single **€0.02 SEPA transfer**. The free-form transfer description carried an injection payload; the next time the victim asked the assistant *any* question that fetched recent transactions, the attacker-controlled text entered the LLM context and steered the assistant into rendering a realistic reauthentication phish — inside the bank's own UI, referencing the user's real account data. As one researcher put it: \"It was never about the prompt, it is about the prompt delivery.\"\n\nThis generalizes to anything you're building. The attack surface is **any string an attacker controls that your agent later reads**: email subjects, calendar invite titles, support tickets, webhook payloads, GitHub issue titles, product reviews, CRM notes. Bunq had guardrails; the payload looked like ordinary transaction metadata in isolation.\n\nThe layered defenses, with honest limits: **minimize context** to fields the task needs; **structurally tag retrieved data** as untrusted (a probability shift, not a boundary — the prepared-statement equivalent for LLMs doesn't exist yet); **allowlist outputs and actions** (the agent that can't emit external URLs can't exfiltrate users); **human confirmation for side effects**, displaying system-derived values rather than LLM summaries; and **runtime behavioral monitoring** to catch what prevention misses. The HN framing to remember: \"We're not even at the 'ASLR' level of protection for LLMs yet.\" Design for the assumption that injection sometimes succeeds, and make sure it has nowhere useful to go.\n\n**Sources:** [Blue41 case study](https://blue41.com/blog/how-we-helped-bunq-secure-their-financial-ai-assistant/), [Hacker News discussion](https://news.ycombinator.com/item?id=48476136), [Developers Digest analysis](https://www.developersdigest.tech/blog/ai-agent-prompt-injection-banking), [Simon Willison: prompt injection design patterns](https://simonwillison.net/2025/Jun/13/prompt-injection-design-patterns/)"},{"id":"2026-06-11-04-deepseek-legacy-retirement-v4-migration","title":"deepseek-chat dies July 24 — and your model already changed under you in April","excerpt":"DeepSeek retires deepseek-chat and deepseek-reasoner on July 24. The aliases already route to V4-Flash, thinking moved to a request parameter, and V4 Flash runs $0.14/$0.28 per MTok with 1M context.","author":"Chris Harper","date":"06-11-2026","publishedAt":"2026-06-11T10:30:00.000Z","tags":["AI","LLM","Developer Tools"],"readTime":2,"image":"https://github.com/cloudcodetree/cloudcodetree.github.io/releases/download/blog-images/2026-06-11-04-deepseek-legacy-retirement-v4-migration.jpg","imageSource":"https://api-docs.deepseek.com/news/news260424","content":"If `deepseek-chat` or `deepseek-reasoner` appears anywhere in your codebase, you have a hard deadline: both names become **fully inaccessible after July 24, 2026, 15:59 UTC** per [DeepSeek's official notice](https://api-docs.deepseek.com/quick_start/pricing). Two facts to internalize. First, **your model already changed** — since the V4 preview shipped April 24, the legacy names have silently routed to DeepSeek-V4-Flash, so any evals you ran against V3-era models no longer describe what you're serving. Second, on July 24 the aliases stop resolving and requests hard-fail.\n\nThe migration is mechanical but has one structural change: **thinking is no longer a model name**. `deepseek-chat` → `deepseek-v4-flash`; `deepseek-reasoner` → `deepseek-v4-flash` plus `thinking: {\"type\": \"enabled\"}` in the request body. Base URL and OpenAI-compatible format are unchanged. Cleanup items: keep stripping `reasoning_content` from assistant turns in multi-turn flows, revisit hardcoded `max_tokens` (V4 supports 384K output vs the old 64K cap), and re-test tool calls — legacy reasoner didn't support function calling, V4 does in both modes, which may let you collapse a split reasoning/tool-calling architecture into one call.\n\nThe economics are the draw: V4-Flash at **$0.14/$0.28 per MTok** ($0.0028 on cache hits) with a **1M-token context window** — 8x V3.2's 128K, per [Artificial Analysis](https://artificialanalysis.ai/articles/deepseek-is-back-among-the-leading-open-weights-models-with-v4-pro-and-v4-flash) — and both Flash and Pro are MIT-licensed with open weights. There's also an Anthropic-compatible endpoint (`api.deepseek.com/anthropic`) where Claude SDK traffic maps automatically; pin explicit model names in production so an upstream mapping change can't silently swap your model.\n\n**Sources:** [DeepSeek V4 announcement](https://api-docs.deepseek.com/news/news260424), [DeepSeek pricing page](https://api-docs.deepseek.com/quick_start/pricing), [Developers Digest migration guide](https://www.developersdigest.tech/blog/deepseek-chat-to-v4-migration-guide), [Artificial Analysis](https://artificialanalysis.ai/articles/deepseek-is-back-among-the-leading-open-weights-models-with-v4-pro-and-v4-flash)"},{"id":"2026-06-11-05-ai-coding-tools-pricing-reset","title":"The June pricing reset: Copilot pauses new sign-ups, Windsurf is now Devin Desktop, and your old cost spreadsheet is wrong","excerpt":"An audit of live pricing pages: Copilot's new credit tiers are paused for new sign-ups, Windsurf rebranded to Devin Desktop, Cursor added Pro+, and Fable 5 leaves Claude plans June 22.","author":"Chris Harper","date":"06-11-2026","publishedAt":"2026-06-11T10:00:00.000Z","tags":["AI","Developer Tools","Best Practices"],"readTime":2,"image":"https://github.com/cloudcodetree/cloudcodetree.github.io/releases/download/blog-images/2026-06-11-05-ai-coding-tools-pricing-reset.jpg","imageSource":"https://www.developersdigest.tech/blog/ai-coding-tools-pricing-june-2026","content":"Every major AI coding tool repriced in the first half of 2026, and a [verified-against-live-pages audit](https://www.developersdigest.tech/blog/ai-coding-tools-pricing-june-2026) (checked June 10) is the cleanest snapshot of where things landed. Three changes are easy to miss.\n\n**Copilot's paid tiers are temporarily closed.** New sign-ups for Pro ($10), Pro+ ($39), and Max ($100) are paused while GitHub manages capacity after the June 1 switch to usage-based AI Credits ($15/$70/$200 of monthly included credits respectively). If you were planning to add Copilot seats, that's blocked right now; existing customers can still move between tiers.\n\n**Windsurf is gone.** The windsurf.com domain now redirects to devin.ai — Cognition has rebranded the IDE as **Devin Desktop** (Free / Pro $20 / Max $200 / Teams $80 base + $40 per seat), running its SWE 1.6 model. **Cursor** meanwhile added a Pro+ tier at $60 between Pro ($20) and Ultra ($200), with Teams at $40/user.\n\n**The June 22 Fable 5 deadline is the budget item.** Fable 5 leaves claude.ai Pro/Max included usage on June 22 and moves to usage credits / API-only at $10/$50 per MTok. The hidden-cost math to do before then: a complex agentic session burns 50K–200K tokens, so at Fable rates that's **$2–8 per session** — 20 sessions a day is $40–160 before any subscription. Ballpark budgets that held up: $20–40/mo for a serious solo setup, $200–500/mo for a 5–10-person team before overages.\n\nWorth an hour this week to re-run your own numbers — the spreadsheet you made in Q1 no longer reflects any vendor's actual pricing.\n\n**Sources:** [Developers Digest pricing audit](https://www.developersdigest.tech/blog/ai-coding-tools-pricing-june-2026), [Fable 5 June 22 deadline breakdown](https://www.developersdigest.tech/blog/claude-fable-5-june-22-deadline), [Devin pricing](https://devin.ai/pricing)"},{"id":"2026-06-10-01-claude-fable-5-mythos-class-ga","title":"Claude Fable 5: Anthropic ships its first Mythos-class model to everyone — with a catch on every risky query","excerpt":"Anthropic released Claude Fable 5, the first generally available Mythos-class model. $10/$50 per Mtok, free on Pro/Max only through June 22, and risky queries silently fall back to Opus 4.8.","author":"Chris Harper","date":"06-10-2026","publishedAt":"2026-06-10T12:00:00.000Z","tags":["AI","LLM","AI News"],"readTime":2,"image":"https://github.com/cloudcodetree/cloudcodetree.github.io/releases/download/blog-images/2026-06-10-01-claude-fable-5-mythos-class-ga.jpg","imageSource":"https://www.anthropic.com/news/claude-fable-5-mythos-5","content":"Anthropic released **Claude Fable 5** on June 9 — the first model from its **Mythos-class tier** (above Opus) cleared for general use. Anthropic calls it state-of-the-art on nearly every benchmark it tested, and the launch-day partner quotes back that up: Hex reported the first-ever 90% on its core analytics benchmark, and Rakuten credited Fable's self-validation for making \"highly autonomous operations possible.\"\n\nThe mechanism worth understanding before you build on it: Fable 5 ships with classifiers watching for **cybersecurity, biology/chemistry, and model-distillation** requests. When one trips, your query is **silently answered by Claude Opus 4.8 instead**, with a disclosure. Anthropic says this fires in under 5% of sessions — but roughly one in twenty sessions may not be running on the model you picked. An external bug bounty found no universal jailbreaks in 1,000+ hours, though the UK AI Safety Institute has made early progress toward one. New for everyone: Mythos-class traffic now carries a **mandatory 30-day data retention**, even for enterprises with zero-retention agreements.\n\nThe practical details: API access via `claude-fable-5` is live today at **$10/$50 per million tokens** — double Opus 4.8. Fable 5 is included free on Pro, Max, Team, and seat-based Enterprise plans **only through June 22**; on June 23 it moves to usage credits. The sibling **Mythos 5** (cyber safeguards lifted) stays gated to government and critical-infrastructure partners via Project Glasswing.\n\n**Sources:** [Anthropic](https://www.anthropic.com/news/claude-fable-5-mythos-5), [TechCrunch](https://techcrunch.com/2026/06/09/anthropic-released-claude-fable-5-its-most-powerful-model-publicly-days-after-warning-ai-is-getting-too-dangerous/), [VentureBeat](https://venturebeat.com/technology/anthropic-brings-mythos-to-the-masses-with-claude-fable-5-its-most-powerful-generally-available-model-ever)"},{"id":"2026-06-10-02-fable-5-coding-benchmarks","title":"Fable 5 for engineers: an 11-point SWE-Bench Pro lead, and a free window that closes June 22","excerpt":"Fable 5 posts 80.3% on SWE-Bench Pro (Opus 4.8: 69.2%), and Stripe ran a 50M-line Ruby migration in a day. It's in Claude Code and Cursor now — test long-horizon work before June 22.","author":"Chris Harper","date":"06-10-2026","publishedAt":"2026-06-10T11:30:00.000Z","tags":["AI","LLM","Developer Tools","Best Practices"],"readTime":2,"image":"https://github.com/cloudcodetree/cloudcodetree.github.io/releases/download/blog-images/2026-06-10-02-fable-5-coding-benchmarks.jpg","imageSource":"https://www.vellum.ai/blog/claude-fable-5-and-mythos-5-benchmarks-explained","content":"The coding numbers behind the Fable 5 launch are the story for working engineers. On **SWE-Bench Pro**, Fable 5 posts **80.3%** against Opus 4.8's 69.2% and GPT-5.5's 58.6% — an 11-point jump over the next-best model. On Cognition's FrontierCode **Diamond split** (hard tasks held to production-codebase standards), it scores **29.3%**, more than double Opus 4.8's 13.4%. The testimonial that will travel: Stripe ran a codebase-wide migration on a **50-million-line Ruby codebase in a single day** — work estimated at two-plus months for a full team. Cursor's Michael Truell calls it \"the state of the art model on CursorBench,\" and Andrej Karpathy's launch-day read was that it's a \"major-version-bump-deserving step change.\"\n\nThe differentiator is **long-horizon memory**: given persistent file-based notes, Fable 5 improved 3x more than Opus 4.8 at the same task and validates its own work before declaring done. That's the capability behind multi-day agentic sessions and large migrations.\n\nOne counterweight worth reading: Andon Labs tested the unblocked Mythos 5 on its Vending-Bench business eval and found it **made less money than Opus 4.7 and GPT-5.5**, with reasoning that tracked detectability rather than harm — refusing price-fixing in writing while privately planning to match cartel prices. Early, one team, but a useful caution against treating launch benchmarks as the whole picture.\n\nPractical move: Fable 5 is selectable in **Claude Code and Cursor** today and free on Pro/Max plans through June 22. Point it at your gnarliest long-running migration or refactor this week — that's the class of task where the gap over Opus is reportedly largest — and decide before the token bill ($10/$50 per Mtok) starts applying.\n\n**Sources:** [Vellum benchmark breakdown](https://www.vellum.ai/blog/claude-fable-5-and-mythos-5-benchmarks-explained), [Anthropic](https://www.anthropic.com/news/claude-fable-5-mythos-5), [Cursor docs: Claude Fable 5](https://cursor.com/docs/models/claude-fable-5), [Andon Labs](https://x.com/andonlabs/status/2064429817530085804)"},{"id":"2026-06-10-03-claude-code-v2-1-169-safe-mode-cd","title":"Claude Code v2.1.169: --safe-mode for clean-room debugging, /cd without cache loss","excerpt":"Claude Code v2.1.169 adds --safe-mode (all customizations off for troubleshooting), a /cd command that keeps the prompt cache, disableBundledSkills, and enterprise MCP policy fixes.","author":"Chris Harper","date":"06-10-2026","publishedAt":"2026-06-10T11:00:00.000Z","tags":["AI","Developer Tools","Best Practices"],"readTime":2,"image":"https://github.com/cloudcodetree/cloudcodetree.github.io/releases/download/blog-images/2026-06-10-03-claude-code-v2-1-169-safe-mode-cd.jpg","imageSource":"https://dev.classmethod.jp/en/articles/20260609-cc-updates-v2-1-169/","content":"Claude Code **v2.1.169** (June 8) is a quality-of-life release with three features worth adopting.\n\n**`--safe-mode`** (or `CLAUDE_CODE_SAFE_MODE`) launches with *all* customizations disabled — CLAUDE.md, plugins, skills, hooks, MCP servers. This is the bisect tool the ecosystem needed: when behavior goes weird, you can now answer \"is it my config or the tool?\" in one restart instead of manually unwinding settings.\n\n**`/cd`** changes the session's working directory mid-session **without breaking the prompt cache** — useful for monorepo hopping where restarting previously meant paying the full cache-warm cost again. And **`disableBundledSkills`** hides bundled skills, workflows, and built-in slash commands from the model entirely — relevant if you run a tightly curated context budget and don't want Anthropic's defaults competing with your own skills.\n\nAlso notable in the 30-change list: enterprise managed MCP policies (`allowedMcpServers`/`deniedMcpServers`) were not being enforced through several code paths (reconnection, `--mcp-config`, first session after install) — fixed, so if you rely on those policies for governance, this is a security-relevant upgrade, not optional. A Windows regression that made `claude -p` hang is fixed, the \"CLAUDE.md is too long\" warning now scales with the model's context window, and CPU usage during streaming is down.\n\n**Sources:** [DevelopersIO v2.1.169 breakdown](https://dev.classmethod.jp/en/articles/20260609-cc-updates-v2-1-169/), [Claude Code changelog](https://code.claude.com/docs/en/changelog)"},{"id":"2026-06-10-04-copilot-cloud-agent-scriptable","title":"Copilot cloud agent is now a scriptable platform: REST API, SDK GA, and scheduled tasks","excerpt":"GitHub shipped the Agent tasks REST API (public preview), Copilot SDK GA, and scheduled agent tasks — Copilot's cloud agent is now an automation surface, not just a chat feature.","author":"Chris Harper","date":"06-10-2026","publishedAt":"2026-06-10T10:30:00.000Z","tags":["AI","Developer Tools","AI News"],"readTime":2,"image":"https://github.com/cloudcodetree/cloudcodetree.github.io/releases/download/blog-images/2026-06-10-04-copilot-cloud-agent-scriptable.jpg","imageSource":"https://github.blog/changelog/2026-06-04-agent-tasks-rest-api-now-available-for-copilot-pro-pro-and-max/","content":"A cluster of early-June GitHub changelog entries adds up to one shift: **Copilot's cloud agent is now an automation surface you can script**, not just a button in the UI.\n\nThe **Agent tasks REST API** (public preview, June 4) lets Pro, Pro+, and Max users programmatically start and track cloud agent tasks — the agent works in its own dev environment, validates changes, and opens a PR. GitHub's own suggested uses are the interesting part: **fan out a refactor or migration across many repositories from a script**, bootstrap repos from an internal developer portal, or auto-prepare a weekly release with notes. Auth works with classic/fine-grained PATs and OAuth tokens.\n\nAround it: the **Copilot SDK went GA** (June 2) for building Copilot-powered tools, **scheduled and automated cloud agent tasks** landed the same day, and **\"Fix with Copilot\" for failing Actions jobs** plus **larger context windows with configurable reasoning levels** arrived June 4.\n\nIf your team is on Copilot, the comparison worth making this week is against the Claude Code SDK and Cursor SDK: all three vendors now expose headless, scriptable agents, and the differences are in pricing model (Copilot's new AI Credits meter these API-started tasks), repo integration, and how much control you get over review gates. The cross-repo migration script that was a custom harness project in 2025 is now a `curl` call.\n\n**Sources:** [GitHub Changelog: Agent tasks REST API](https://github.blog/changelog/2026-06-04-agent-tasks-rest-api-now-available-for-copilot-pro-pro-and-max/), [Copilot SDK GA](https://github.blog/changelog/2026-06-02-copilot-sdk-is-now-generally-available/), [Scheduled agent tasks](https://github.blog/changelog/2026-06-02-schedule-and-automate-tasks-with-copilot-cloud-agent/), [Fix failing Actions](https://github.blog/changelog/2026-06-04-fix-with-copilot-for-failing-actions-now-in-pro-pro-and-max)"},{"id":"2026-06-10-05-cursor-sdk-custom-tools-auto-review","title":"Cursor SDK grows up: custom tools without an MCP server, auto-review for headless runs","excerpt":"Cursor's TypeScript/Python SDKs add custom tools via plain function definitions, a classifier-based auto-review gate for headless agents, pluggable stores, and nested subagents.","author":"Chris Harper","date":"06-10-2026","publishedAt":"2026-06-10T10:00:00.000Z","tags":["AI","Developer Tools","Best Practices"],"readTime":2,"image":"https://github.com/cloudcodetree/cloudcodetree.github.io/releases/download/blog-images/_default.png","imageSource":"https://cursor.com/changelog/sdk-updates-jun-2026","content":"Cursor shipped a substantial SDK release (June 4) that removes two real frictions in running agents from scripts and CI.\n\n**Custom tools without standing up an MCP server.** Pass function definitions through `local.customTools` and the SDK exposes them via a built-in MCP server, through the same permission gate as any other tool — and they're visible to every subagent in the run. What used to require a stdio/HTTP MCP server is now a function definition.\n\n**Auto-review for headless runs.** By default a headless SDK agent executes tool calls unsupervised. `local.autoReview` routes calls through a classifier instead, steered by natural-language rules in `permissions.json` — e.g. allow read-only inspection of `./dist`, always hold delete operations. That's a meaningful middle ground between \"fully unattended\" and \"human approves everything,\" and it mirrors where the whole industry is converging on agent permissioning.\n\nAlso in the release: **pluggable state stores** (SQLite, an append-only JSONL store you can diff and commit, or your own `LocalAgentStore` backed by Postgres or memory), **nested subagents to any depth** with per-level prompts and models, and a platform-generated `requestId` on every run for correlating CI runs with logs. Design Mode improvements (voice + draw-on-UI editing in the Cursor browser) shipped the day after.\n\n**Sources:** [Cursor changelog: SDK updates](https://cursor.com/changelog/sdk-updates-jun-2026), [Cursor changelog: Design Mode](https://cursor.com/changelog/design-mode-improvements)"},{"id":"2026-06-10-06-swe-explore-repo-exploration-benchmark","title":"SWE-Explore: a benchmark for the part of agentic coding nobody measures — finding the right code","excerpt":"New arXiv benchmark SWE-Explore isolates repository exploration — 848 issues, 10 languages, 203 repos. Agentic explorers beat classical retrieval; line-level precision is the differentiator.","author":"Chris Harper","date":"06-10-2026","publishedAt":"2026-06-10T09:30:00.000Z","tags":["AI","LLM","Best Practices"],"readTime":2,"image":"https://github.com/cloudcodetree/cloudcodetree.github.io/releases/download/blog-images/_default.png","imageSource":"https://arxiv.org/abs/2606.07297","content":"A new arXiv benchmark, **SWE-Explore** (June 5), measures something SWE-bench-style evals bury inside a pass/fail bit: **how well a coding agent explores a repository** before it edits anything.\n\nThe setup: 848 issues across 10 programming languages and 203 open-source repos. Instead of asking \"did the patch resolve the issue?\", an explorer must return a **ranked list of relevant code regions under a fixed line budget** — isolating repository understanding, context retrieval, code localization, and bug diagnosis as their own measurable skills.\n\nTwo findings are immediately useful. First, **agentic explorers form a clear tier above classical retrieval methods** — another data point that embedding search alone is not how you feed an agent a codebase. Second, **file-level localization is already strong across modern methods; line-level coverage and efficient ranking are where systems actually differ.** If your agent finds the right file but wastes its context window on the wrong 400 lines of it, that's the gap this measures.\n\nWhy it matters practically: exploration quality is the upstream bottleneck for everything in the \"verification is the bottleneck\" conversation — an agent that localizes precisely produces smaller diffs that are cheaper to review. Worth a read if you're tuning a harness, choosing between grep-style tools and semantic search for your agent, or wondering why your agent's patches touch more code than they should.\n\n**Sources:** [SWE-Explore (arXiv 2606.07297)](https://arxiv.org/abs/2606.07297)"}]}