{"page":5,"pageCount":19,"perPage":10,"total":190,"posts":[{"id":"2026-06-08-01-claude-code-changelog-hooks-can-now-keep-the-tur","title":"Claude Code changelog: hooks can now keep the turn alive, plus plugin management","excerpt":"The latest Claude Code release lets Stop and SubagentStop hooks return hookSpecificOutput.additionalContext to feed the model guidance without tripping a hook-error state — useful for nudging an…","author":"Chris Harper","date":"06-08-2026","tags":["AI","Developer Tools","LLM"],"readTime":1,"image":"https://github.com/cloudcodetree/cloudcodetree.github.io/releases/download/blog-images/_default.png","content":"The latest Claude Code release lets `Stop` and `SubagentStop` hooks return `hookSpecificOutput.additionalContext` to feed the model guidance *without* tripping a hook-error state — useful for nudging an agent to keep working instead of bailing. Also new: a `/plugin list` command with `--enabled`/`--disabled` filters, and a `$` escape in Skills so you can include a literal `$` before a digit in command bodies. Worth a scan if you script Claude Code automation.\n\n---\n*Sources: [Claude Code changelog](https://code.claude.com/docs/en/changelog) · [Releasebot: Claude Code June 2026](https://releasebot.io/updates/anthropic/claude-code)*\n"},{"id":"2026-06-08-02-a-concrete-baseline-for-configuring-a-coding-age","title":"A concrete baseline for configuring a coding agent in 2026","excerpt":"A 40-engineer survey writeup lands on a default config worth copying: custom style instructions, an AGENTS.md in the repo for architecture context, 5–10 skills for repetitive workflows (review,…","author":"Chris Harper","date":"06-08-2026","tags":["AI","Developer Tools","DevOps","Best Practices"],"readTime":1,"image":"https://github.com/cloudcodetree/cloudcodetree.github.io/releases/download/blog-images/_default.png","content":"A 40-engineer survey writeup lands on a default config worth copying: custom style instructions, an `AGENTS.md` in the repo for architecture context, 5–10 skills for repetitive workflows (review, commits, docs, testing), and 2–3 MCP servers for the services you touch daily (DB, CI/CD, monitoring). It also pushes a safe-adoption ladder — let agents add tests and fix small bugs first, then low-risk refactors, then dependency/doc sync, and only then cross-module feature work.\n\n---\n*Sources: [AI Builder Club survey](https://www.aibuilderclub.com/blog/best-ai-coding-agent-2026) · [Agent configuration guide](https://www.agensi.io/learn/ai-agent-configuration-guide-2026)*\n"},{"id":"2026-06-08-03-treat-your-coding-tools-as-interchangeable-subag","title":"Treat your coding tools as interchangeable subagents, not rival apps","excerpt":"A pattern gaining traction: route a single task across Codex, Claude Code, Cursor CLI, and Gemini CLI as cooperating subagents, using MCP as the shared wire protocol. The open-source…","author":"Chris Harper","date":"06-08-2026","tags":["AI","Developer Tools","LLM","Best Practices"],"readTime":1,"image":"https://github.com/cloudcodetree/cloudcodetree.github.io/releases/download/blog-images/_default.png","content":"A pattern gaining traction: route a single task across Codex, Claude Code, Cursor CLI, and Gemini CLI as cooperating subagents, using MCP as the shared wire protocol. The open-source `sub-agents-skills` project packages this as an Agent Skill so you can delegate from whichever tool you're driving. The takeaway for engineers: stop picking one winner and start composing them — MCP is now mature enough that cross-tool orchestration is a real workflow, not a demo.\n\n---\n*Sources: [sub-agents-skills (GitHub)](https://github.com/shinpr/sub-agents-skills) · [Claude Code is the engine, Cursor is the cockpit](https://dev.to/sattensil888/claude-code-is-the-engine-cursor-is-the-cockpit-7kh)*\n"},{"id":"2026-06-08-04-llm-as-judge-the-actual-sampling-economics","title":"LLM-as-judge: the actual sampling economics","excerpt":"Beyond \"build evals\" advice that's been circulating, here's the concrete budget that production teams are converging on: run a frontier model as judge on 10–20% of production traffic and 100% of CI…","author":"Chris Harper","date":"06-08-2026","tags":["AI","Best Practices","LLM"],"readTime":1,"image":"https://github.com/cloudcodetree/cloudcodetree.github.io/releases/download/blog-images/_default.png","content":"Beyond \"build evals\" advice that's been circulating, here's the concrete budget that production teams are converging on: run a frontier model as judge on 10–20% of production traffic and 100% of CI regression cases, and reserve human annotation for calibration and high-uncertainty edge cases (~2–5% of traffic). In 2026, LLM judges agree with human reviewers ~85% of the time — higher than two humans agree with each other — which is why it's now the default for evaluating LLM apps at scale. Validate the judge against human labels before you trust it.\n\n---\n*Sources: [Agent Evaluation: tools, trajectories & LLM-as-judge](https://medium.com/@vinodkrane/chapter-8-agent-evaluation-for-llms-how-to-test-tools-trajectories-and-llm-as-judge-788f6f3e0d52) · [Confident AI: LLM-as-a-judge guide](https://www.confident-ai.com/blog/why-llm-as-a-judge-is-the-best-llm-evaluation-method)*\n"},{"id":"2026-06-08-05-apples-foundation-models-framework-as-a-free-pri","title":"Apple's Foundation Models framework as a free, private inference tier","excerpt":"Relevant given today's WWDC: Apple's framework exposes the ~3B on-device model (the one behind Apple Intelligence) from Swift in as few as three lines, with guided generation and tool calling built…","author":"Chris Harper","date":"06-08-2026","tags":["AI","Best Practices","LLM","Cloud"],"readTime":1,"image":"https://github.com/cloudcodetree/cloudcodetree.github.io/releases/download/blog-images/2026-06-08-05-apples-foundation-models-framework-as-a-free-pri.jpg","imageSource":"https://developer.apple.com/documentation/FoundationModels","content":"Relevant given today's WWDC: Apple's framework exposes the ~3B on-device model (the one behind Apple Intelligence) from Swift in as few as three lines, with guided generation and tool calling built in. Inference is free and runs offline, which makes it a real option for classification, structured extraction, and light agent tasks in shipping apps — reach for it before paying for a cloud round-trip, and fall back to cloud only when you need the bigger model. Apple is expected to expand context windows and fine-tuning support this week.\n\n---\n*Sources: [Foundation Models docs](https://developer.apple.com/documentation/FoundationModels) · [Run AI on-device with a few lines of Swift](https://dev.to/arshtechpro/apples-foundation-models-framework-run-ai-on-device-with-just-a-few-lines-of-swift-lbp)*\n"},{"id":"2026-06-08-06-wwdc-2026-gemini-powered-siri-and-an-ios-27-slot","title":"WWDC 2026: Gemini-powered Siri, and an iOS 27 slot for third-party assistants","excerpt":"Apple opened WWDC today (June 8) with a rebuilt Siri backed by a custom ~1.2-trillion-parameter Gemini model licensed from Google (reportedly ~$1B/year), adding a chat mode and personal-context…","author":"Chris Harper","date":"06-08-2026","tags":["AI","AI News","LLM"],"readTime":1,"image":"https://github.com/cloudcodetree/cloudcodetree.github.io/releases/download/blog-images/2026-06-08-06-wwdc-2026-gemini-powered-siri-and-an-ios-27-slot.jpg","imageSource":"https://techcrunch.com/2026/06/06/what-to-expect-from-wwdc-2026-siris-highly-anticipated-revamp-and-apple-intelligence-updates/","content":"Apple opened WWDC today (June 8) with a rebuilt Siri backed by a custom ~1.2-trillion-parameter Gemini model licensed from Google (reportedly ~$1B/year), adding a chat mode and personal-context features. The part that matters for engineers: **iOS 27 Extensions let users pick a third-party AI model as their default assistant**, and Siri can hand questions off to installed services like Claude or Gemini — a new, OS-level distribution surface for AI apps. Developer betas are out now, public betas in July, GA in the fall.\n\n---\n*Sources: [TechCrunch: what to expect](https://techcrunch.com/2026/06/06/what-to-expect-from-wwdc-2026-siris-highly-anticipated-revamp-and-apple-intelligence-updates/) · [MacRumors WWDC 2026 guide](https://www.macrumors.com/guide/wwdc-2026-what-to-expect/) · [Apple Developer: WWDC26](https://developer.apple.com/wwdc26/)*\n"},{"id":"2026-06-08-07-codex-changelog-sites-preview-hardens-windows-sa","title":"Codex changelog: Sites preview hardens, Windows sandbox lands","excerpt":"Following last week's Codex \"Sites\" launch (covered June 6), this week's update adds archive controls, smoother TUI markdown, stronger remote execution and app-server support, Windows sandbox…","author":"Chris Harper","date":"06-08-2026","tags":["AI","AI News","Developer Tools"],"readTime":1,"image":"https://github.com/cloudcodetree/cloudcodetree.github.io/releases/download/blog-images/2026-06-08-07-codex-changelog-sites-preview-hardens-windows-sa.jpg","imageSource":"https://developers.openai.com/codex/changelog","content":"Following last week's Codex \"Sites\" launch (covered June 6), this week's update adds archive controls, smoother TUI markdown, stronger remote execution and app-server support, Windows sandbox provisioning, and image-generation extension support, plus auth and command-safety improvements. Minor on its own, but the Windows sandbox in particular widens where Codex's autonomous execution can run. *Update to prior coverage — the Sites feature itself was already reported.*\n\n---\n*Sources: [Codex changelog](https://developers.openai.com/codex/changelog) · [Releasebot: Codex June 2026](https://releasebot.io/updates/openai/codex)*\n"},{"id":"2026-06-07-01-gemini-cli-users-migrate-to-antigravity-cli-befo","title":"Gemini CLI users: migrate to Antigravity CLI before June 18","excerpt":"Google's release notes confirm that the Gemini Code Assist IDE extensions and the standalone Gemini CLI will stop serving requests for individual, Google AI Pro, and AI Ultra tiers on June 18, 2026.…","author":"Chris Harper","date":"06-07-2026","tags":["AI","Developer Tools","DevOps","Best Practices"],"readTime":1,"image":"https://github.com/cloudcodetree/cloudcodetree.github.io/releases/download/blog-images/2026-06-07-01-gemini-cli-users-migrate-to-antigravity-cli-befo.jpg","imageSource":"https://developers.google.com/gemini-code-assist/resources/release-notes","content":"Google's release notes confirm that the Gemini Code Assist IDE extensions and the standalone Gemini CLI will **stop serving requests for individual, Google AI Pro, and AI Ultra tiers on June 18, 2026**. The replacement is Antigravity and the new Go-based Antigravity CLI (Gemini 3.5 Flash by default, with Gemini 3.1 Pro / 3.0 Flash available for agent mode). If any of your scripts, CI jobs, or local workflows shell out to `gemini`, they will break that day — plan the swap now rather than discovering it in a red pipeline.\n\n---\n*Sources: [Gemini Code Assist Release Notes](https://developers.google.com/gemini-code-assist/resources/release-notes)*\n"},{"id":"2026-06-07-02-treat-folder-structure-as-agentic-architecture-n","title":"Treat folder structure as agentic architecture, not just human organization","excerpt":"A new arXiv paper (\"Interpretable Context Methodology: Folder Structure as Agentic Architecture\") argues your directory layout is itself a context-engineering lever: agents navigate and retrieve by…","author":"Chris Harper","date":"06-07-2026","tags":["AI","Developer Tools","LLM"],"readTime":1,"image":"https://github.com/cloudcodetree/cloudcodetree.github.io/releases/download/blog-images/_default.png","content":"A new arXiv paper (\"Interpretable Context Methodology: Folder Structure as Agentic Architecture\") argues your directory layout is itself a context-engineering lever: agents navigate and retrieve by path semantics, so a tree organized around clear, self-describing boundaries lets an agent locate the right code without burning session tokens re-discovering structure. The practical takeaway is to name and group directories for machine navigation (predictable, intent-revealing paths) the same way you'd write a good CLAUDE.md.\n\n---\n*Sources: [arXiv 2603.16021](https://arxiv.org/pdf/2603.16021)*\n"},{"id":"2026-06-07-03-six-months-in-split-the-work-by-tool-dont-pick-o","title":"Six months in: split the work by tool, don't pick one winner","excerpt":"The New Stack's hands-on retrospective comparing Claude Code, Cursor, Codex, and Antigravity lands on a role-splitting workflow rather than a single \"best\" tool: terminal agents (Claude Code, Codex)…","author":"Chris Harper","date":"06-07-2026","tags":["AI","Developer Tools","LLM","Cloud"],"readTime":1,"image":"https://github.com/cloudcodetree/cloudcodetree.github.io/releases/download/blog-images/2026-06-07-03-six-months-in-split-the-work-by-tool-dont-pick-o.jpg","imageSource":"https://thenewstack.io/claude-code-vs-cursor-vs-codex-vs-antigravity-2026/","content":"The New Stack's hands-on retrospective comparing Claude Code, Cursor, Codex, and Antigravity lands on a role-splitting workflow rather than a single \"best\" tool: terminal agents (Claude Code, Codex) for deep autonomous multi-file changes and refactors, IDE-integrated tools (Cursor) for tight interactive editing and review, and cloud/background agents for parallel delegation. The recurring failure mode they flag is context drift between tools — keep a shared rules file (CLAUDE.md / AGENTS.md) as the single source of truth so each agent respects the same conventions.\n\n---\n*Sources: [The New Stack](https://thenewstack.io/claude-code-vs-cursor-vs-codex-vs-antigravity-2026/)*\n"}]}