{"page":6,"pageCount":19,"perPage":10,"total":190,"posts":[{"id":"2026-06-07-04-beyond-human-readable-code-conventions-are-shift","title":"Beyond Human-Readable\": code conventions are shifting toward the agent as primary reader","excerpt":"This new paper makes a concrete engineering argument: once LLM agents are the main consumers reading, writing, and debugging your code, optimizing purely for human readability can be…","author":"Chris Harper","date":"06-07-2026","tags":["AI","Best Practices","LLM"],"readTime":1,"image":"https://github.com/cloudcodetree/cloudcodetree.github.io/releases/download/blog-images/2026-06-07-04-beyond-human-readable-code-conventions-are-shift.jpg","imageSource":"https://arxiv.org/abs/2604.07502","content":"This new paper makes a concrete engineering argument: once LLM agents are the main consumers reading, writing, and debugging your code, optimizing purely for human readability can be counterproductive. It proposes *semantic density optimization* (strip zero-information tokens, keep high-signal ones), a *program skeleton* abstraction for fast agent navigation, and — provocatively — the selective \"rehabilitation\" of classical anti-patterns, validated on a log-format token-economy experiment. Useful framing when you design how agents log, summarize, and traverse a codebase.\n\n---\n*Sources: [arXiv 2604.07502](https://arxiv.org/abs/2604.07502)*\n"},{"id":"2026-06-07-05-a-unified-map-of-agent-externalization-memory-sk","title":"A unified map of agent \"externalization\" — memory, skills, protocols, harness","excerpt":"A new survey (\"Externalization in LLM Agents: A Unified Review of Memory, Skills, Protocols and Harness Engineering\") pulls the scattered agent-engineering vocabulary into one framework: what the…","author":"Chris Harper","date":"06-07-2026","tags":["AI","Best Practices","LLM"],"readTime":1,"image":"https://github.com/cloudcodetree/cloudcodetree.github.io/releases/download/blog-images/_default.png","content":"A new survey (\"Externalization in LLM Agents: A Unified Review of Memory, Skills, Protocols and Harness Engineering\") pulls the scattered agent-engineering vocabulary into one framework: what the agent stores outside its context (memory), what reusable capabilities it loads (skills), how it talks to tools and other agents (protocols like MCP), and the surrounding execution scaffolding (harness). If you're designing an agent system and keep reinventing terms, this is a good shared reference to align a team on.\n\n---\n*Sources: [arXiv 2604.08224](https://arxiv.org/pdf/2604.08224)*\n"},{"id":"2026-06-07-06-empirical-look-at-agentic-ai-across-the-full-sdl","title":"Empirical look at agentic AI across the full SDLC","excerpt":"\"Agentic AI in the Software Development Lifecycle: Architecture, Empirical Evidence, and the Reshaping of Software Engineering\" surveys where autonomous agents are actually landing across planning,…","author":"Chris Harper","date":"06-07-2026","tags":["AI","Best Practices"],"readTime":1,"image":"https://github.com/cloudcodetree/cloudcodetree.github.io/releases/download/blog-images/2026-06-07-06-empirical-look-at-agentic-ai-across-the-full-sdl.jpg","imageSource":"https://arxiv.org/abs/2604.26275","content":"\"Agentic AI in the Software Development Lifecycle: Architecture, Empirical Evidence, and the Reshaping of Software Engineering\" surveys where autonomous agents are actually landing across planning, coding, testing, review, and ops — and where the empirical evidence supports real gains versus where it's still hype. A grounded read for engineering leaders deciding which lifecycle stages to instrument with agents first, rather than rolling them out everywhere at once.\n\n---\n*Sources: [arXiv 2604.26275](https://arxiv.org/abs/2604.26275)*\n"},{"id":"2026-06-07-07-openai-agrees-to-pre-release-federal-safety-revi","title":"OpenAI agrees to pre-release federal safety reviews","excerpt":"OpenAI told CNBC it will comply with the new executive order asking frontier developers to submit models for a 30-day federal safety check before release. For engineers, this signals a likely…","author":"Chris Harper","date":"06-07-2026","tags":["AI","AI News","LLM"],"readTime":1,"image":"https://github.com/cloudcodetree/cloudcodetree.github.io/releases/download/blog-images/2026-06-07-07-openai-agrees-to-pre-release-federal-safety-revi.jpg","imageSource":"https://www.cnbc.com/2026/06/01/microsoft-and-google-take-on-anthropic-and-openai-in-ai-coding-models.html","content":"OpenAI told CNBC it will comply with the new executive order asking frontier developers to submit models for a **30-day federal safety check before release**. For engineers, this signals a likely slowdown and more predictable cadence on frontier model launches — the days of surprise drops may be ending — and sets a compliance precedent the other major labs will probably follow. It lands the same week the OpenAI, Anthropic, Google DeepMind, and Microsoft AI chiefs jointly asked Congress to mandate synthetic-DNA screening (an escalation of the bio-risk letter first noted in the June 3 briefing).\n\n---\n*Sources: [CNBC](https://www.cnbc.com/2026/06/01/microsoft-and-google-take-on-anthropic-and-openai-in-ai-coding-models.html)*\n"},{"id":"2026-06-07-08-cursor-restructures-teams-pricing-into-standard-","title":"Cursor restructures Teams pricing into Standard and Premium seats","excerpt":"Cursor moved Teams to two tiers: Standard at $32/seat/mo (annual) or $40/mo, and a new Premium at $96/seat/mo (annual) or $120/mo with ~5x the usage allotment. Coming right after GitHub Copilot's…","author":"Chris Harper","date":"06-07-2026","tags":["AI","AI News"],"readTime":1,"image":"https://github.com/cloudcodetree/cloudcodetree.github.io/releases/download/blog-images/2026-06-07-08-cursor-restructures-teams-pricing-into-standard-.jpg","imageSource":"https://lushbinary.com/blog/ai-coding-agents-comparison-cursor-windsurf-claude-copilot-kiro-2026/","content":"Cursor moved Teams to two tiers: **Standard at $32/seat/mo (annual) or $40/mo**, and a new **Premium at $96/seat/mo (annual) or $120/mo with ~5x the usage allotment**. Coming right after GitHub Copilot's billing overhaul, it's another sign the AI coding tools are converging on usage-metered, tiered pricing — worth re-checking your team's seat mix and monthly token burn before the next renewal so you're not overpaying for idle Premium seats or throttling heavy users on Standard.\n\n---\n*Sources: [Lushbinary pricing breakdown](https://lushbinary.com/blog/ai-coding-agents-comparison-cursor-windsurf-claude-copilot-kiro-2026/)*\n"},{"id":"2026-06-07-09-synthid-watermarking-gains-cross-vendor-adoption","title":"SynthID watermarking gains cross-vendor adoption","excerpt":"Google announced that OpenAI, Kakao, and ElevenLabs are adopting SynthID, its watermarking standard for AI-generated content. This nudges watermarking toward an industry default — relevant if you…","author":"Chris Harper","date":"06-07-2026","tags":["AI","AI News","LLM"],"readTime":1,"image":"https://github.com/cloudcodetree/cloudcodetree.github.io/releases/download/blog-images/2026-06-07-09-synthid-watermarking-gains-cross-vendor-adoption.jpg","imageSource":"https://blog.google/innovation-and-ai/sundar-pichai-io-2026/","content":"Google announced that OpenAI, Kakao, and ElevenLabs are adopting **SynthID**, its watermarking standard for AI-generated content. This nudges watermarking toward an industry default — relevant if you build anything that ingests, moderates, or republishes generated images/audio/text, since you can increasingly rely on a shared provenance signal rather than rolling your own detection.\n\n---\n*Sources: [Google I/O 2026 keynote recap](https://blog.google/innovation-and-ai/sundar-pichai-io-2026/)*\n"},{"id":"2026-06-06-01-the-tasks-as-issues-pattern-from-this-weeks-ask-","title":"The \"tasks as issues\" pattern from this week's Ask HN dev-stack thread","excerpt":"The current Ask HN: What is your (AI) dev tech stack / workflow? thread surfaces a consistent winning pattern: write each unit of work like a GitHub issue (background, goal, acceptance criteria,…","author":"Chris Harper","date":"06-06-2026","tags":["AI","Developer Tools","Best Practices"],"readTime":1,"image":"https://github.com/cloudcodetree/cloudcodetree.github.io/releases/download/blog-images/_default.png","content":"The current [Ask HN: What is your (AI) dev tech stack / workflow?](https://news.ycombinator.com/item?id=48413629) thread surfaces a consistent winning pattern: write each unit of work like a GitHub issue (background, goal, acceptance criteria, constraints, test command) instead of a casual chat, and keep chunks small enough to fit in context and be reviewed. Practitioners pair this with small commits and good messages so that when an agent breaks something across five changes, you can bisect to the culprit. It's a low-effort habit that meaningfully reduces agent \"off the rails\" output.\n\n---\n*Sources: [Hacker News](https://news.ycombinator.com/item?id=48413629)*\n"},{"id":"2026-06-06-02-review-agent-output-like-a-junior-engineers-pr-n","title":"Review agent output like a junior engineer's PR, not an oracle","excerpt":"A widely-shared practical roadmap argues the default 2026 loop is hybrid: plan in your IDE, let the agent execute in a sandbox, then gate everything behind CI + human PR review. The mental model that…","author":"Chris Harper","date":"06-06-2026","tags":["AI","Developer Tools","Security","LLM"],"readTime":1,"image":"https://github.com/cloudcodetree/cloudcodetree.github.io/releases/download/blog-images/2026-06-06-02-review-agent-output-like-a-junior-engineers-pr-n.jpg","imageSource":"https://codepick.dev/en/guides/ai-coding-agents-2026-roadmap/","content":"A widely-shared [practical roadmap](https://codepick.dev/en/guides/ai-coding-agents-2026-roadmap/) argues the default 2026 loop is hybrid: plan in your IDE, let the agent execute in a sandbox, then gate everything behind CI + human PR review. The mental model that matters is treating results as a junior's pull request — inspect diffs, run the tests, check edge cases and security — rather than accepting them as authoritative. Teams with solid CI/CD and test automation foundations are the ones turning agent velocity into actual shipped throughput.\n\n---\n*Sources: [CodePick](https://codepick.dev/en/guides/ai-coding-agents-2026-roadmap/)*\n"},{"id":"2026-06-06-03-treat-the-context-window-as-ram-not-storage","title":"Treat the context window as RAM, not storage","excerpt":"A Mem0 post from June 5 makes a clean distinction that explains a lot of agent failures: the context window is working memory (RAM), and stuffing it like persistent storage is what causes drift and…","author":"Chris Harper","date":"06-06-2026","tags":["AI","Developer Tools"],"readTime":1,"image":"https://github.com/cloudcodetree/cloudcodetree.github.io/releases/download/blog-images/_default.png","content":"A [Mem0 post from June 5](https://mem0.ai/blog/context-window-is-ram-not-storage-why-most-agent-failures-happen-how-to-fix-them-in-2026) makes a clean distinction that explains a lot of agent failures: the context window is working memory (RAM), and stuffing it like persistent storage is what causes drift and degradation. The fix is a memory hierarchy — separate short-lived working context from a persistent store, and retrieve narrowly (their algorithm stays under ~7K tokens per call vs. 25K+ for full-context dumps) while scoring better on long-memory benchmarks. Practically: compress and summarize old turns, curate what persists, and lean on retrieval instead of an ever-growing prompt.\n\n---\n*Sources: [Mem0](https://mem0.ai/blog/context-window-is-ram-not-storage-why-most-agent-failures-happen-how-to-fix-them-in-2026)*\n"},{"id":"2026-06-06-04-slopsquatting-is-now-a-confirmed-supply-chain-th","title":"Slopsquatting is now a confirmed supply-chain threat — gate your dependencies","excerpt":"Roughly 20% of AI-generated code references packages that don't exist, and attackers are registering those hallucinated names as malware. The CSA and vendors document real cases: the malicious…","author":"Chris Harper","date":"06-06-2026","tags":["AI","Best Practices","React"],"readTime":1,"image":"https://github.com/cloudcodetree/cloudcodetree.github.io/releases/download/blog-images/2026-06-06-04-slopsquatting-is-now-a-confirmed-supply-chain-th.jpg","imageSource":"https://labs.cloudsecurityalliance.org/research/csa-research-note-slopsquatting-ai-supply-chain-20260419-csa/","content":"Roughly 20% of AI-generated code references packages that don't exist, and attackers are registering those hallucinated names as malware. The CSA and vendors document real cases: the malicious `unused-imports` npm package (a hallucination of `eslint-plugin-unused-imports`) was still pulling ~233 weekly downloads in February, and `react-codeshift` spread through 237 repos largely via autonomous agents installing their own hallucinated output. The defense is concrete: add a dependency scanner that flags non-existent/suspicious packages before install, pin lockfiles, and don't let coding agents resolve dependencies unsupervised.\n\n---\n*Sources: [Cloud Security Alliance](https://labs.cloudsecurityalliance.org/research/csa-research-note-slopsquatting-ai-supply-chain-20260419-csa/) · [Trend Micro](https://www.trendmicro.com/vinfo/us/security/news/cybercrime-and-digital-threats/slopsquatting-when-ai-agents-hallucinate-malicious-packages)*\n"}]}