{"page":7,"pageCount":19,"perPage":10,"total":190,"posts":[{"id":"2026-06-06-05-the-moat-is-eval-infrastructure-not-the-model","title":"The moat is eval infrastructure, not the model","excerpt":"A Towards Data Science framework distilled from 100+ deployments argues the teams shipping agents successfully aren't the ones with the best model — they're the ones with the best evaluation harness.…","author":"Chris Harper","date":"06-06-2026","tags":["AI","Best Practices","LLM"],"readTime":1,"image":"https://github.com/cloudcodetree/cloudcodetree.github.io/releases/download/blog-images/2026-06-06-05-the-moat-is-eval-infrastructure-not-the-model.jpg","imageSource":"https://towardsdatascience.com/building-an-evaluation-harness-for-production-ai-agents-a-12-metric-framework-from-100-deployments/","content":"A [Towards Data Science framework](https://towardsdatascience.com/building-an-evaluation-harness-for-production-ai-agents-a-12-metric-framework-from-100-deployments/) distilled from 100+ deployments argues the teams shipping agents successfully aren't the ones with the best model — they're the ones with the best evaluation harness. Key specifics worth adopting: measure all-runs consistency with pass^k (not just pass@k), calibrate your LLM judge against a human gold set, grow your eval datasets from real production traces, and gate CI on actual scores. It also stresses logging full trajectories — every prompt, tool call, and intermediate thought — so failures are debuggable.\n\n---\n*Sources: [Towards Data Science](https://towardsdatascience.com/building-an-evaluation-harness-for-production-ai-agents-a-12-metric-framework-from-100-deployments/) · [Arize comparison](https://arize.com/blog/the-best-eval-harness-for-production-ai-a-comparison/)*\n"},{"id":"2026-06-06-06-skill-vs-subagent-a-simple-decision-rule","title":"Skill vs. subagent: a simple decision rule","excerpt":"A practical Claude Code guide offers a clean heuristic for when to reach for which primitive: if the work is small and should stay in front of you, make it a skill; if it's big and should run in a…","author":"Chris Harper","date":"06-06-2026","tags":["AI","Best Practices","LLM"],"readTime":1,"image":"https://github.com/cloudcodetree/cloudcodetree.github.io/releases/download/blog-images/_default.png","content":"A [practical Claude Code guide](https://docs.bswen.com/blog/2026-04-09-subagents-skills-claude-code/) offers a clean heuristic for when to reach for which primitive: if the work is small and should stay in front of you, make it a skill; if it's big and should run in a side process with isolated context, make it a subagent. Subagents shine for research and review (exploring 10+ files, then reporting a structured summary of what changed, what was tested, and what's risky back to the parent), and you launch independent ones in parallel batches rather than sequentially.\n\n---\n*Sources: [BSWEN](https://docs.bswen.com/blog/2026-04-09-subagents-skills-claude-code/)*\n"},{"id":"2026-06-06-07-openai-pushes-codex-past-coding-sites-role-speci","title":"OpenAI pushes Codex past coding — Sites, role-specific plugins, and in-place Annotations","excerpt":"In a June 2 update, OpenAI repositioned Codex from a programming assistant into a general work environment: \"Sites\" lets agents build and share hosted dashboards/apps via URL, six role-specific…","author":"Chris Harper","date":"06-06-2026","tags":["AI","AI News","LLM"],"readTime":1,"image":"https://github.com/cloudcodetree/cloudcodetree.github.io/releases/download/blog-images/_default.png","content":"In a [June 2 update](https://venturebeat.com/orchestration/openais-codex-update-lets-agents-build-interactive-enterprise-workspaces-via-sites-and-role-specific-plugins), OpenAI repositioned Codex from a programming assistant into a general work environment: \"Sites\" lets agents build and share hosted dashboards/apps via URL, six role-specific plugins bundle 62 business apps (Snowflake, Figma, Salesforce) and 110 skills, and \"Annotations\" allows targeted edits to docs/sites without regenerating everything. Notably, non-developers are now ~20% of Codex's 5M weekly users and adopting it 3× faster than engineers. For software teams this signals the agent surface expanding well beyond the IDE — and more non-engineers shipping internal tooling you may end up maintaining.\n\n---\n*Sources: [VentureBeat](https://venturebeat.com/orchestration/openais-codex-update-lets-agents-build-interactive-enterprise-workspaces-via-sites-and-role-specific-plugins) · [9to5Mac](https://9to5mac.com/2026/06/02/openai-putting-codex-inside-chatgpt-app-everywhere-releasing-6-business-plugins/)*\n"},{"id":"2026-06-06-08-frontier-cyber-models-go-to-eu-regulators-gpt-55","title":"Frontier cyber models go to EU regulators: GPT-5.5-Cyber lands, Anthropic opens Mythos to ENISA (update)","excerpt":"A development on the Mythos thread first noted on May 31: as of June 5, OpenAI is extending GPT-5.5-Cyber — a permission-tuned variant for vetted defenders doing vuln research, malware analysis, and…","author":"Chris Harper","date":"06-06-2026","tags":["AI","AI News","Security","LLM"],"readTime":1,"image":"https://github.com/cloudcodetree/cloudcodetree.github.io/releases/download/blog-images/2026-06-06-08-frontier-cyber-models-go-to-eu-regulators-gpt-55.jpg","imageSource":"https://www.techtimes.com/articles/317891/20260605/openai-gpt-55-cyber-reaches-eu-anthropic-mythos-opens-enisa-days-later.htm","content":"A development on the Mythos thread first noted on May 31: as of [June 5](https://www.techtimes.com/articles/317891/20260605/openai-gpt-55-cyber-reaches-eu-anthropic-mythos-opens-enisa-days-later.htm), OpenAI is extending GPT-5.5-Cyber — a permission-tuned variant for vetted defenders doing vuln research, malware analysis, and reverse engineering — to the EU, while Anthropic agreed to give EU cyber agency ENISA access to Mythos via Project Glasswing (the first EU institution admitted). What's new since last coverage: Mythos has moved from \"coming soon\" to active regulator access, and individuals using OpenAI's most permissive cyber models must now enable phishing-resistant Advanced Account Security (effective June 1). For engineers, this is the early shape of gated, identity-verified access to dual-use security tooling.\n\n---\n*Sources: [TechTimes](https://www.techtimes.com/articles/317891/20260605/openai-gpt-55-cyber-reaches-eu-anthropic-mythos-opens-enisa-days-later.htm) · [Bloomberg](https://www.bloomberg.com/news/articles/2026-06-01/anthropic-to-give-eu-s-cybersecurity-agency-access-to-mythos) · [OpenAI](https://openai.com/index/gpt-5-5-with-trusted-access-for-cyber/)*\n"},{"id":"2026-06-06-09-minimax-m3-an-open-weight-model-claiming-frontie","title":"MiniMax M3: an open-weight model claiming frontier coding at 1M context","excerpt":"Released June 1, MiniMax M3 is pitched as the first open-weight model to combine frontier coding, a 1M-token context window, and native multimodality in one architecture, with a self-reported 59.0%…","author":"Chris Harper","date":"06-06-2026","tags":["AI","AI News","LLM"],"readTime":1,"image":"https://github.com/cloudcodetree/cloudcodetree.github.io/releases/download/blog-images/2026-06-06-09-minimax-m3-an-open-weight-model-claiming-frontie.jpg","imageSource":"https://www.minimax.io/blog/minimax-m3","content":"Released [June 1](https://www.minimax.io/blog/minimax-m3), MiniMax M3 is pitched as the first open-weight model to combine frontier coding, a 1M-token context window, and native multimodality in one architecture, with a self-reported 59.0% on SWE-Bench Pro (above GPT-5.5 and Gemini 3.1 Pro, approaching Claude Opus 4.7) at $0.30/M input tokens, weights promised on Hugging Face within ~10 days. Treat the benchmarks with caution — [TechTimes flagged them as unverified](https://www.techtimes.com/articles/317532/20260601/minimax-m3-open-weight-coding-model-frontier-claims-unverified-benchmarks.htm) — but if they hold, it's a serious self-hostable option for repo-scale, long-context agentic coding without per-token frontier pricing.\n\n---\n*Sources: [MiniMax](https://www.minimax.io/blog/minimax-m3) · [The Decoder](https://the-decoder.com/minimax-m3-open-weight-model-with-a-million-token-context-challenges-proprietary-leaders/)*\n"},{"id":"2026-06-05-01-force-a-planning-phase-before-any-code-is-genera","title":"Force a planning phase before any code is generated","excerpt":"The single highest-leverage technique reported this week: make the agent produce a plan and approve it before it touches files. Without that separation, models jump straight to a solution and miss…","author":"Chris Harper","date":"06-05-2026","tags":["AI","Developer Tools"],"readTime":1,"image":"https://github.com/cloudcodetree/cloudcodetree.github.io/releases/download/blog-images/2026-06-05-01-force-a-planning-phase-before-any-code-is-genera.jpg","imageSource":"https://theexcitedengineer.substack.com/p/your-best-ai-coding-guide-with-claude","content":"The single highest-leverage technique reported this week: make the agent produce a plan and approve it before it touches files. Without that separation, models jump straight to a solution and miss architecture/context. Developers report success on complex tasks jumping from roughly 1/3 to 2/3.\n\n---\n*Sources: [The Excited Engineer](https://theexcitedengineer.substack.com/p/your-best-ai-coding-guide-with-claude) · [haihai.ai](https://www.haihai.ai/cursor-vs-claude-code/)*\n"},{"id":"2026-06-05-02-tighten-context-drop-the-politeness","title":"Tighten context, drop the politeness","excerpt":"Give the agent one well-scoped task and only the files relevant to it; broad context turns a specialist into a generalist. In Cursor, use \"Reference Open Editors\" to control context and avoid…","author":"Chris Harper","date":"06-05-2026","tags":["AI","Developer Tools","LLM"],"readTime":1,"image":"https://github.com/cloudcodetree/cloudcodetree.github.io/releases/download/blog-images/2026-06-05-02-tighten-context-drop-the-politeness.jpg","imageSource":"https://theexcitedengineer.substack.com/p/your-best-ai-coding-guide-with-claude","content":"Give the agent one well-scoped task and only the files relevant to it; broad context turns a specialist into a generalist. In Cursor, use \"Reference Open Editors\" to control context and avoid pollution from logs. Notably, dropping filler words like \"please\"/\"help\" in coding prompts avoids triggering \"helpful assistant mode\" where the model favors a quick answer over precise instruction-following.\n\n---\n*Sources: [The Excited Engineer](https://theexcitedengineer.substack.com/p/your-best-ai-coding-guide-with-claude)*\n"},{"id":"2026-06-05-03-claude-code-dynamic-workflows-skills-changes-wor","title":"Claude Code dynamic workflows + skills changes worth adopting","excerpt":"Dynamic workflows (research preview, Enterprise/Team/Max) let Claude plan a large task, run hundreds of parallel subagents in one session, verify outputs, and report back — good for codebase-wide…","author":"Chris Harper","date":"06-05-2026","tags":["AI","Developer Tools","LLM","Best Practices"],"readTime":1,"image":"https://github.com/cloudcodetree/cloudcodetree.github.io/releases/download/blog-images/_default.png","content":"Dynamic workflows (research preview, Enterprise/Team/Max) let Claude plan a large task, run hundreds of parallel subagents in one session, verify outputs, and report back — good for codebase-wide audits and large migrations. Fast mode now runs Opus 4.8 at lower cost. Also new: plugins in `.claude/skills` load automatically (no marketplace), `/reload-skills` re-scans without a restart, and skills can set `disallowed-tools` in frontmatter.\n\n---\n*Sources: [Releasebot — Claude Code updates](https://releasebot.io/updates/anthropic/claude-code) · [MarkTechPost](https://www.marktechpost.com/2026/05/28/anthropic-ships-claude-opus-4-8-alongside-dynamic-workflows-and-cheaper-fast-mode-with-workflows-capped-at-1000-subagents/)*\n"},{"id":"2026-06-05-04-treat-your-rules-file-as-core-infra","title":"Treat your rules file as core infra","excerpt":"A well-maintained .cursorrules / CLAUDE.md is described as one of the highest-leverage investments in an AI workflow: it encodes architecture, conventions, and constraints so a generic assistant…","author":"Chris Harper","date":"06-05-2026","tags":["AI","Developer Tools","LLM","Best Practices"],"readTime":1,"image":"https://github.com/cloudcodetree/cloudcodetree.github.io/releases/download/blog-images/2026-06-05-04-treat-your-rules-file-as-core-infra.jpg","imageSource":"https://devtk.ai/en/blog/complete-guide-cursorrules/","content":"A well-maintained `.cursorrules` / `CLAUDE.md` is described as one of the highest-leverage investments in an AI workflow: it encodes architecture, conventions, and constraints so a generic assistant produces code that fits your codebase. Pair it with a short \"how we use AI here\" doc with examples of AI-assisted PRs that passed review to reduce team variance.\n\n---\n*Sources: [DevTk.AI — Guide to AI Coding Rules](https://devtk.ai/en/blog/complete-guide-cursorrules/)*\n"},{"id":"2026-06-05-05-local-model-memory-retrieval-beats-bigger-contex","title":"Local-model memory: retrieval beats bigger context","excerpt":"A widely-shared r/LocalLLaMA finding pushes back on \"just add more context/VRAM\": bigger windows can make recall worse due to the Lost-in-the-Middle effect. The fix is structured external memory with…","author":"Chris Harper","date":"06-05-2026","tags":["AI","Developer Tools"],"readTime":1,"image":"https://github.com/cloudcodetree/cloudcodetree.github.io/releases/download/blog-images/_default.png","content":"A widely-shared r/LocalLLaMA finding pushes back on \"just add more context/VRAM\": bigger windows can make recall *worse* due to the Lost-in-the-Middle effect. The fix is structured external memory with selective retrieval, not compute scaling.\n\n---\n*Sources: [AI Weekly summary](https://aiweekly.co/alerts/localllama-dev-solves-memory-with-external-retrieval)*\n"}]}