{"page":9,"pageCount":19,"perPage":10,"total":190,"posts":[{"id":"2026-06-04-03-windsurf-is-now-devin-desktop-ide-as-agent-manag","title":"Windsurf is Now Devin Desktop: IDE as Agent Manager","excerpt":"On June 2, Cognition retired the Windsurf brand and relaunched as Devin Desktop, with a Rust-rewritten engine (Devin Local, 30% more token-efficient), Agent Client Protocol (ACP) support, and a new…","author":"Chris Harper","date":"06-04-2026","tags":["AI","Developer Tools"],"readTime":1,"image":"https://github.com/cloudcodetree/cloudcodetree.github.io/releases/download/blog-images/2026-06-04-03-windsurf-is-now-devin-desktop-ide-as-agent-manag.jpg","imageSource":"https://devin.ai/blog/windsurf-is-now-devin-desktop","content":"On June 2, Cognition retired the Windsurf brand and relaunched as Devin Desktop, with a Rust-rewritten engine (Devin Local, 30% more token-efficient), Agent Client Protocol (ACP) support, and a new default screen that's a Kanban board of your running agents rather than a code editor. The paradigm shift: you're now a \"goal-setter and reviewer\" rather than a line-level coder. If you're on Windsurf, the update arrives as an OTA update with no pricing changes. Cascade is deprecated July 1.\n\n---\n*Sources: [Devin AI Blog](https://devin.ai/blog/windsurf-is-now-devin-desktop) · [ChatForest Builder Guide](https://chatforest.com/builders-log/windsurf-devin-desktop-rebrand-devin-local-acp-builder-guide/)*\n"},{"id":"2026-06-04-04-github-copilot-overhauls-billing-flex-allotments","title":"GitHub Copilot Overhauls Billing: Flex Allotments + New $100 Max Plan","excerpt":"Effective June 1, Copilot rolled out usage-based \"flex billing\" across all plans. Pro gets 1,000 base + 500 flex credits/month; Pro+ gets 3,900 base + 3,100 flex; the new Max plan targets high-volume…","author":"Chris Harper","date":"06-04-2026","tags":["AI","Developer Tools"],"readTime":1,"image":"https://github.com/cloudcodetree/cloudcodetree.github.io/releases/download/blog-images/2026-06-04-04-github-copilot-overhauls-billing-flex-allotments.jpg","imageSource":"https://github.blog/news-insights/company-news/github-copilot-individual-plans-introducing-flex-allotments-in-pro-and-pro-and-a-new-max-plan/","content":"Effective June 1, Copilot rolled out usage-based \"flex billing\" across all plans. Pro gets 1,000 base + 500 flex credits/month; Pro+ gets 3,900 base + 3,100 flex; the new Max plan targets high-volume users at 10,000 base + 10,000 flex. Critically, code completions and next-edit suggestions remain unlimited for paid users and don't consume credits. If you routinely hit limits, it's worth checking whether your actual usage warrants an upgrade.\n\n---\n*Sources: [GitHub Blog](https://github.blog/news-insights/company-news/github-copilot-individual-plans-introducing-flex-allotments-in-pro-and-pro-and-a-new-max-plan/) · [GitHub Changelog](https://github.blog/changelog/2026-06-01-updates-to-github-copilot-billing-and-plans/)*\n"},{"id":"2026-06-04-05-ai-productivity-reality-check-84-use-ai-tools-on","title":"AI Productivity Reality Check: 84% Use AI Tools, Only 10% Productivity Gains","excerpt":"A sobering data point making the rounds: despite 84% of developers using AI tools daily, measured productivity gains average only 10%. A METR controlled study found experienced developers actually…","author":"Chris Harper","date":"06-04-2026","tags":["AI","Developer Tools","Best Practices"],"readTime":1,"image":"https://github.com/cloudcodetree/cloudcodetree.github.io/releases/download/blog-images/2026-06-04-05-ai-productivity-reality-check-84-use-ai-tools-on.jpg","imageSource":"https://www.secondtalent.com/resources/ai-developer-productivity-tools-2026/","content":"A sobering data point making the rounds: despite 84% of developers using AI tools daily, measured productivity gains average only 10%. A METR controlled study found experienced developers actually took 19% *longer* on tasks when using AI. Root causes: over-reliance without review, poor context management, and deployment problems from untested AI-generated code. The implication for your workflow: the gains are real for teams with strong testing, review practices, and context hygiene — but not automatic.\n\n---\n*Sources: [Second Talent Report](https://www.secondtalent.com/resources/ai-developer-productivity-tools-2026/) · [TechCrunch](https://techcrunch.com/2026/05/29/coders-are-refusing-to-work-without-ai-and-that-could-come-back-to-bite-them/)*\n"},{"id":"2026-06-04-06-context-engineering-is-the-new-prompt-engineerin","title":"Context Engineering is the New Prompt Engineering","excerpt":"The 2026 consensus has shifted: the primary skill for working with LLMs is no longer crafting prompts but managing what information is available to the model. Anthropic published a detailed…","author":"Chris Harper","date":"06-04-2026","tags":["AI","Best Practices","LLM"],"readTime":1,"image":"https://github.com/cloudcodetree/cloudcodetree.github.io/releases/download/blog-images/2026-06-04-06-context-engineering-is-the-new-prompt-engineerin.jpg","imageSource":"https://www.anthropic.com/engineering/effective-context-engineering-for-ai-agents","content":"The 2026 consensus has shifted: the primary skill for working with LLMs is no longer crafting prompts but managing *what information* is available to the model. Anthropic published a detailed engineering guide on effective context engineering for agents, framing it as four strategies: **write** (persist context externally), **select** (retrieve via RAG), **compress** (summarize and compact), and **isolate** (separate contexts per agent). The key finding: most agent failures in 2026 aren't model failures — they're context failures. Dynamically selecting relevant tools alone improved Llama 3.1 8B function-calling performance by 44% in one benchmark.\n\n---\n*Sources: [Anthropic Engineering Blog](https://www.anthropic.com/engineering/effective-context-engineering-for-ai-agents) · [LangChain Blog](https://www.langchain.com/blog/context-engineering-for-agents) · [ByteByteGo Guide](https://blog.bytebytego.com/p/a-guide-to-context-engineering-for)*\n"},{"id":"2026-06-04-07-multi-agent-systems-outperform-single-agents-whe","title":"Multi-Agent Systems Outperform Single Agents — When Contexts Are Isolated","excerpt":"Anthropic researchers showed that multi-agent setups beat single-agent setups specifically when each subagent operates within its own narrow, isolated context and returns results to a main…","author":"Chris Harper","date":"06-04-2026","tags":["AI","Best Practices","LLM"],"readTime":1,"image":"https://github.com/cloudcodetree/cloudcodetree.github.io/releases/download/blog-images/2026-06-04-07-multi-agent-systems-outperform-single-agents-whe.jpg","imageSource":"https://arxiv.org/abs/2601.01743","content":"Anthropic researchers showed that multi-agent setups beat single-agent setups specifically when each subagent operates within its own narrow, isolated context and returns results to a main orchestrator. Shared massive context windows across agents cause cross-contamination and degraded performance. A January 2026 arXiv survey organizes prior work into a unified taxonomy of agent components and orchestration patterns, with practical trade-off analysis (latency vs. accuracy, autonomy vs. controllability).\n\n---\n*Sources: [arXiv:2601.01743](https://arxiv.org/abs/2601.01743) · [arXiv: Orchestration of Multi-Agent Systems](https://arxiv.org/html/2601.13671v1)*\n"},{"id":"2026-06-04-08-nine-best-practices-for-production-grade-agentic","title":"Nine Best Practices for Production-Grade Agentic Workflows","excerpt":"A practical arXiv guide (December 2025, widely circulated now) lays out nine engineering principles for shipping agentic AI in production: tool-first design over MCP, pure-function invocation,…","author":"Chris Harper","date":"06-04-2026","tags":["AI","Best Practices","Microservices"],"readTime":1,"image":"https://github.com/cloudcodetree/cloudcodetree.github.io/releases/download/blog-images/_default.png","content":"A practical arXiv guide (December 2025, widely circulated now) lays out nine engineering principles for shipping agentic AI in production: tool-first design over MCP, pure-function invocation, single-tool and single-responsibility agents, externalized prompt management, and containerized deployment. The core theme: treat agents like microservices — each one should be focused, testable, and independently deployable.\n\n---\n*Sources: [arXiv PDF](https://arxiv.org/pdf/2512.08769)*\n"},{"id":"2026-06-04-09-the-llm-context-problem-in-2026-treat-context-as","title":"The LLM Context Problem in 2026: Treat Context as a First-Class Engineering Discipline","excerpt":"LogRocket's analysis of context management challenges in 2026 makes a key argument: successful production teams treat context engineering as deliberate work — filtering, ranking, pruning,…","author":"Chris Harper","date":"06-04-2026","tags":["AI","Best Practices","Developer Tools"],"readTime":1,"image":"https://github.com/cloudcodetree/cloudcodetree.github.io/releases/download/blog-images/2026-06-04-09-the-llm-context-problem-in-2026-treat-context-as.jpg","imageSource":"https://blog.logrocket.com/llm-context-problem-strategies-2026/","content":"LogRocket's analysis of context management challenges in 2026 makes a key argument: successful production teams treat context engineering as deliberate work — filtering, ranking, pruning, summarizing, and isolating information — not an afterthought. \"Too many teams treat context windows like junk drawers.\" With frontier models now having 256K+ context windows, the real constraint is relevance and signal-to-noise, not raw capacity.\n\n---\n*Sources: [LogRocket Blog](https://blog.logrocket.com/llm-context-problem-strategies-2026/)*\n"},{"id":"2026-06-04-10-microsoft-launches-mai-code-1-flash-and-mai-thin","title":"Microsoft Launches MAI-Code-1-Flash and MAI-Thinking-1 at Build 2026","excerpt":"At Build this week (June 2-3), Microsoft unveiled its first proprietary AI models built entirely in-house without OpenAI data. MAI-Code-1-Flash is a 5B-parameter coding model that outperforms Claude…","author":"Chris Harper","date":"06-04-2026","tags":["AI","AI News","LLM"],"readTime":1,"image":"https://github.com/cloudcodetree/cloudcodetree.github.io/releases/download/blog-images/2026-06-04-10-microsoft-launches-mai-code-1-flash-and-mai-thin.jpg","imageSource":"https://microsoft.ai/news/introducingmai-code-1-flash/","content":"At Build this week (June 2-3), Microsoft unveiled its first proprietary AI models built entirely in-house without OpenAI data. **MAI-Code-1-Flash** is a 5B-parameter coding model that outperforms Claude Haiku 4.5 across all core coding benchmarks (+16 points on SWE-Bench Pro: 51.2% vs 35.2%) and solves harder problems with 60% fewer tokens — it's rolling out to GitHub Copilot users in VS Code now. **MAI-Thinking-1** is a 35B active-parameter MoE reasoning model with a 256K context window that scores 97% on AIME 2025 and 53% on SWE-Bench Pro (matching Claude Opus 4.6) — in private preview via Microsoft Foundry. For engineers: these are direct Copilot integrations, which means competitive pressure on Anthropic and OpenAI pricing is only going up.\n\n---\n*Sources: [Microsoft AI](https://microsoft.ai/news/introducingmai-code-1-flash/) · [Neowin](https://www.neowin.net/news/microsoft-unveils-mai-thinking-1-reasoning-and-mai-code-1-coding-models/) · [CNBC](https://www.cnbc.com/2026/06/02/microsoft-unveils-new-ai-models-lessen-reliance-on-openai-lower-costs.html)*\n"},{"id":"2026-06-04-11-anthropic-files-for-ipo-at-965b-valuation-after-","title":"Anthropic Files for IPO at $965B Valuation After $65B Series H","excerpt":"Anthropic confidentially filed IPO paperwork this week, targeting an October 2026 listing, after closing a $65B Series H at a $965B post-money valuation — surpassing OpenAI's valuation for the first…","author":"Chris Harper","date":"06-04-2026","tags":["AI","AI News","LLM"],"readTime":1,"image":"https://github.com/cloudcodetree/cloudcodetree.github.io/releases/download/blog-images/2026-06-04-11-anthropic-files-for-ipo-at-965b-valuation-after-.jpg","imageSource":"https://fortune.com/2026/06/01/anthropic-confidentially-files-ipo-965-billion-valuation/","content":"Anthropic confidentially filed IPO paperwork this week, targeting an October 2026 listing, after closing a $65B Series H at a $965B post-money valuation — surpassing OpenAI's valuation for the first time. The company reported a Q2 revenue run rate of $47B, more than doubling quarter over quarter, driven largely by Claude Code adoption. For engineers: Anthropic's growth means continued heavy investment in coding tools, and an IPO creates pressure to maintain that trajectory. Claude Code is now the market-leading AI coding tool by usage among surveyed developers.\n\n---\n*Sources: [Fortune](https://fortune.com/2026/06/01/anthropic-confidentially-files-ipo-965-billion-valuation/) · [Anthropic Series H Announcement](https://www.anthropic.com/news/series-h) · [CNBC](https://www.cnbc.com/2026/05/28/anthropic-open-ai-startup-value.html)*\n"},{"id":"2026-06-04-12-claude-opus-48-released-with-dynamic-workflows-a","title":"Claude Opus 4.8 Released with Dynamic Workflows and Fast Mode","excerpt":"Released May 28 (the most recent Anthropic model), Opus 4.8 adds three developer-relevant features: (1) Dynamic Workflows — a research preview in Claude Code that splits large-scale jobs across…","author":"Chris Harper","date":"06-04-2026","tags":["AI","AI News","LLM","Best Practices"],"readTime":1,"image":"https://github.com/cloudcodetree/cloudcodetree.github.io/releases/download/blog-images/2026-06-04-12-claude-opus-48-released-with-dynamic-workflows-a.jpg","imageSource":"https://www.anthropic.com/news/claude-opus-4-8","content":"Released May 28 (the most recent Anthropic model), Opus 4.8 adds three developer-relevant features: (1) **Dynamic Workflows** — a research preview in Claude Code that splits large-scale jobs across parallel subagents, enabling codebase-wide tasks that were previously impractical; (2) **Fast mode** — 2.5x higher output tokens/second, now 3x cheaper than previous fast-mode pricing; (3) **Live messages API** — accepts changes to the messages array mid-task without breaking prompt cache or requiring a new user turn. It also scores 84% on Online-Mind2Web, making it the strongest computer-use agent tested. Available now at `claude-opus-4-8` on the API.\n\n---\n*Sources: [Anthropic News](https://www.anthropic.com/news/claude-opus-4-8) · [TechCrunch](https://techcrunch.com/2026/05/28/anthropic-releases-opus-4-8-with-new-dynamic-workflow-tool/) · [GitHub Copilot Changelog](https://github.blog/changelog/2026-05-28-claude-opus-4-8-is-generally-available-for-github-copilot/)*\n"}]}